# Control CSV file for assembling TTF file using Font 8
name,Win/BMP,en-US,1,Iron Lord
name,Win/BMP,en-US,2,Regular
name,Win/BMP,en-US,3,Iron Lord Regular
name,Win/BMP,en-US,4,Iron Lord
name,Win/BMP,en-US,5,Version 0.20200611
name,Win/BMP,en-US,6,IronLord-Regular
