<svg xmlns="http://www.w3.org/2000/svg" viewBox="-Inf -Inf +Inf +Inf">
  <g id="c64_us_upper_00" source="c64_us_upper_00.png">
    <path d="M 512 0 L 512 256 L 256 256 L 256 1536 L 512 1536 L 512 1792 L 1536 1792 L 1536 1536 L 1792 1536 L 1792 1280 L 1536 1280 L 1536 1536 L 768 1536 L 768 256 L 1280 256 L 1280 512 L 1024 512 L 1024 1024 L 1792 1024 L 1792 256 L 1536 256 L 1536 0 Z" class=""></path>
    <path d="M 0 1792 L 2048 1792 " class="baseline"></path>
  </g>
  <g id="c64_us_upper_01" source="c64_us_upper_01.png">
    <path d="M 768 0 L 768 256 L 512 256 L 512 512 L 256 512 L 256 1792 L 768 1792 L 768 1024 L 1280 1024 L 1280 1792 L 1792 1792 L 1792 512 L 1536 512 L 1536 256 L 1280 256 L 1280 0 Z &#xA; M 768 768 L 768 512 L 1280 512 L 1280 768 Z" class=""></path>
    <path d="M 0 1792 L 2048 1792 " class="baseline"></path>
  </g>
  <g id="c64_us_upper_02" source="c64_us_upper_02.png">
    <path d="M 256 0 L 256 1792 L 1536 1792 L 1536 1536 L 1792 1536 L 1792 1024 L 1536 1024 L 1536 768 L 1792 768 L 1792 256 L 1536 256 L 1536 0 Z &#xA; M 768 512 L 768 256 L 1280 256 L 1280 768 L 768 768 Z &#xA; M 768 1280 L 768 1024 L 1280 1024 L 1280 1536 L 768 1536 Z" class=""></path>
    <path d="M 0 1792 L 2048 1792 " class="baseline"></path>
  </g>
  <g id="c64_us_upper_03" source="c64_us_upper_03.png">
    <path d="M 512 0 L 512 256 L 256 256 L 256 1536 L 512 1536 L 512 1792 L 1536 1792 L 1536 1536 L 1792 1536 L 1792 1280 L 1280 1280 L 1280 1536 L 768 1536 L 768 256 L 1280 256 L 1280 512 L 1792 512 L 1792 256 L 1536 256 L 1536 0 Z" class=""></path>
    <path d="M 0 1792 L 2048 1792 " class="baseline"></path>
  </g>
  <g id="c64_us_upper_04" source="c64_us_upper_04.png">
    <path d="M 256 0 L 256 1792 L 1280 1792 L 1280 1536 L 1536 1536 L 1536 1280 L 1792 1280 L 1792 512 L 1536 512 L 1536 256 L 1280 256 L 1280 0 Z &#xA; M 768 512 L 768 256 L 1024 256 L 1024 512 L 1280 512 L 1280 1280 L 1024 1280 L 1024 1536 L 768 1536 Z" class=""></path>
    <path d="M 0 1792 L 2048 1792 " class="baseline"></path>
  </g>
  <g id="c64_us_upper_05" source="c64_us_upper_05.png">
    <path d="M 256 0 L 256 1792 L 1792 1792 L 1792 1536 L 768 1536 L 768 1024 L 1280 1024 L 1280 768 L 768 768 L 768 256 L 1792 256 L 1792 0 Z" class=""></path>
    <path d="M 0 1792 L 2048 1792 " class="baseline"></path>
  </g>
  <g id="c64_us_upper_06" source="c64_us_upper_06.png">
    <path d="M 256 0 L 256 1792 L 768 1792 L 768 1024 L 1280 1024 L 1280 768 L 768 768 L 768 256 L 1792 256 L 1792 0 Z" class=""></path>
    <path d="M 0 1792 L 2048 1792 " class="baseline"></path>
  </g>
  <g id="c64_us_upper_07" source="c64_us_upper_07.png">
    <path d="M 512 0 L 512 256 L 256 256 L 256 1536 L 512 1536 L 512 1792 L 1536 1792 L 1536 1536 L 1792 1536 L 1792 768 L 1024 768 L 1024 1024 L 1280 1024 L 1280 1536 L 768 1536 L 768 256 L 1280 256 L 1280 512 L 1792 512 L 1792 256 L 1536 256 L 1536 0 Z" class=""></path>
    <path d="M 0 1792 L 2048 1792 " class="baseline"></path>
  </g>
  <g id="c64_us_upper_08" source="c64_us_upper_08.png">
    <path d="M 256 0 L 256 1792 L 768 1792 L 768 1024 L 1280 1024 L 1280 1792 L 1792 1792 L 1792 0 L 1280 0 L 1280 768 L 768 768 L 768 0 Z" class=""></path>
    <path d="M 0 1792 L 2048 1792 " class="baseline"></path>
  </g>
  <g id="c64_us_upper_09" source="c64_us_upper_09.png">
    <path d="M 512 0 L 512 256 L 768 256 L 768 1536 L 512 1536 L 512 1792 L 1536 1792 L 1536 1536 L 1280 1536 L 1280 256 L 1536 256 L 1536 0 Z" class=""></path>
    <path d="M 0 1792 L 2048 1792 " class="baseline"></path>
  </g>
  <g id="c64_us_upper_10" source="c64_us_upper_10.png">
    <path d="M 768 0 L 768 256 L 1024 256 L 1024 1536 L 768 1536 L 768 1280 L 256 1280 L 256 1536 L 512 1536 L 512 1792 L 1280 1792 L 1280 1536 L 1536 1536 L 1536 256 L 1792 256 L 1792 0 Z" class=""></path>
    <path d="M 0 1792 L 2048 1792 " class="baseline"></path>
  </g>
  <g id="c64_us_upper_11" source="c64_us_upper_11.png">
    <path d="M 256 0 L 256 1792 L 768 1792 L 768 1280 L 1024 1280 L 1024 1536 L 1280 1536 L 1280 1792 L 1792 1792 L 1792 1536 L 1536 1536 L 1536 1280 L 1280 1280 L 1280 1024 L 1024 1024 L 1024 768 L 1280 768 L 1280 512 L 1536 512 L 1536 256 L 1792 256 L 1792 0 L 1280 0 L 1280 256 L 1024 256 L 1024 512 L 768 512 L 768 0 Z" class=""></path>
    <path d="M 0 1792 L 2048 1792 " class="baseline"></path>
  </g>
  <g id="c64_us_upper_12" source="c64_us_upper_12.png">
    <path d="M 256 0 L 256 1792 L 1792 1792 L 1792 1536 L 768 1536 L 768 0 Z" class=""></path>
    <path d="M 0 1792 L 2048 1792 " class="baseline"></path>
  </g>
  <g id="c64_us_upper_13" source="c64_us_upper_13.png">
    <path d="M 256 0 L 256 1792 L 768 1792 L 768 768 L 1024 768 L 1024 1024 L 1280 1024 L 1280 768 L 1536 768 L 1536 1792 L 2048 1792 L 2048 0 L 1536 0 L 1536 256 L 1280 256 L 1280 512 L 1024 512 L 1024 256 L 768 256 L 768 0 Z" class=""></path>
    <path d="M 0 1792 L 2048 1792 " class="baseline"></path>
  </g>
  <g id="c64_us_upper_14" source="c64_us_upper_14.png">
    <path d="M 256 0 L 256 1792 L 768 1792 L 768 1024 L 1024 1024 L 1024 1280 L 1280 1280 L 1280 1792 L 1792 1792 L 1792 0 L 1280 0 L 1280 512 L 1024 512 L 1024 256 L 768 256 L 768 0 Z" class=""></path>
    <path d="M 0 1792 L 2048 1792 " class="baseline"></path>
  </g>
  <g id="c64_us_upper_15" source="c64_us_upper_15.png">
    <path d="M 512 0 L 512 256 L 256 256 L 256 1536 L 512 1536 L 512 1792 L 1536 1792 L 1536 1536 L 1792 1536 L 1792 256 L 1536 256 L 1536 0 Z &#xA; M 768 512 L 768 256 L 1280 256 L 1280 1536 L 768 1536 Z" class=""></path>
    <path d="M 0 1792 L 2048 1792 " class="baseline"></path>
  </g>
  <g id="c64_us_upper_16" source="c64_us_upper_16.png">
    <path d="M 256 0 L 256 1792 L 768 1792 L 768 1024 L 1536 1024 L 1536 768 L 1792 768 L 1792 256 L 1536 256 L 1536 0 Z &#xA; M 768 512 L 768 256 L 1280 256 L 1280 768 L 768 768 Z" class=""></path>
    <path d="M 0 1792 L 2048 1792 " class="baseline"></path>
  </g>
  <g id="c64_us_upper_17" source="c64_us_upper_17.png">
    <path d="M 512 0 L 512 256 L 256 256 L 256 1280 L 512 1280 L 512 1536 L 1024 1536 L 1024 1792 L 1792 1792 L 1792 1536 L 1536 1536 L 1536 1280 L 1792 1280 L 1792 256 L 1536 256 L 1536 0 Z &#xA; M 768 512 L 768 256 L 1280 256 L 1280 1280 L 768 1280 Z" class=""></path>
    <path d="M 0 1792 L 2048 1792 " class="baseline"></path>
  </g>
  <g id="c64_us_upper_18" source="c64_us_upper_18.png">
    <path d="M 256 0 L 256 1792 L 768 1792 L 768 1280 L 1024 1280 L 1024 1536 L 1280 1536 L 1280 1792 L 1792 1792 L 1792 1536 L 1536 1536 L 1536 1280 L 1280 1280 L 1280 1024 L 1536 1024 L 1536 768 L 1792 768 L 1792 256 L 1536 256 L 1536 0 Z &#xA; M 768 512 L 768 256 L 1280 256 L 1280 768 L 768 768 Z" class=""></path>
    <path d="M 0 1792 L 2048 1792 " class="baseline"></path>
  </g>
  <g id="c64_us_upper_19" source="c64_us_upper_19.png">
    <path d="M 512 0 L 512 256 L 256 256 L 256 768 L 512 768 L 512 1024 L 1280 1024 L 1280 1536 L 768 1536 L 768 1280 L 256 1280 L 256 1536 L 512 1536 L 512 1792 L 1536 1792 L 1536 1536 L 1792 1536 L 1792 1024 L 1536 1024 L 1536 768 L 768 768 L 768 256 L 1280 256 L 1280 512 L 1792 512 L 1792 256 L 1536 256 L 1536 0 Z" class=""></path>
    <path d="M 0 1792 L 2048 1792 " class="baseline"></path>
  </g>
  <g id="c64_us_upper_20" source="c64_us_upper_20.png">
    <path d="M 256 0 L 256 256 L 768 256 L 768 1792 L 1280 1792 L 1280 256 L 1792 256 L 1792 0 Z" class=""></path>
    <path d="M 0 1792 L 2048 1792 " class="baseline"></path>
  </g>
  <g id="c64_us_upper_21" source="c64_us_upper_21.png">
    <path d="M 256 0 L 256 1536 L 512 1536 L 512 1792 L 1536 1792 L 1536 1536 L 1792 1536 L 1792 0 L 1280 0 L 1280 1536 L 768 1536 L 768 0 Z" class=""></path>
    <path d="M 0 1792 L 2048 1792 " class="baseline"></path>
  </g>
  <g id="c64_us_upper_22" source="c64_us_upper_22.png">
    <path d="M 256 0 L 256 1280 L 512 1280 L 512 1536 L 768 1536 L 768 1792 L 1280 1792 L 1280 1536 L 1536 1536 L 1536 1280 L 1792 1280 L 1792 0 L 1280 0 L 1280 1280 L 768 1280 L 768 0 Z" class=""></path>
    <path d="M 0 1792 L 2048 1792 " class="baseline"></path>
  </g>
  <g id="c64_us_upper_23" source="c64_us_upper_23.png">
    <path d="M 256 0 L 256 1792 L 768 1792 L 768 1536 L 1024 1536 L 1024 1280 L 1280 1280 L 1280 1536 L 1536 1536 L 1536 1792 L 2048 1792 L 2048 0 L 1536 0 L 1536 1024 L 1280 1024 L 1280 768 L 1024 768 L 1024 1024 L 768 1024 L 768 0 Z" class=""></path>
    <path d="M 0 1792 L 2048 1792 " class="baseline"></path>
  </g>
  <g id="c64_us_upper_24" source="c64_us_upper_24.png">
    <path d="M 256 0 L 256 512 L 512 512 L 512 768 L 768 768 L 768 1024 L 512 1024 L 512 1280 L 256 1280 L 256 1792 L 768 1792 L 768 1280 L 1280 1280 L 1280 1792 L 1792 1792 L 1792 1280 L 1536 1280 L 1536 1024 L 1280 1024 L 1280 768 L 1536 768 L 1536 512 L 1792 512 L 1792 0 L 1280 0 L 1280 512 L 768 512 L 768 0 Z" class=""></path>
    <path d="M 0 1792 L 2048 1792 " class="baseline"></path>
  </g>
  <g id="c64_us_upper_25" source="c64_us_upper_25.png">
    <path d="M 256 0 L 256 768 L 512 768 L 512 1024 L 768 1024 L 768 1792 L 1280 1792 L 1280 1024 L 1536 1024 L 1536 768 L 1792 768 L 1792 0 L 1280 0 L 1280 768 L 768 768 L 768 0 Z" class=""></path>
    <path d="M 0 1792 L 2048 1792 " class="baseline"></path>
  </g>
  <g id="c64_us_upper_26" source="c64_us_upper_26.png">
    <path d="M 256 0 L 256 256 L 1280 256 L 1280 512 L 1024 512 L 1024 768 L 768 768 L 768 1024 L 512 1024 L 512 1280 L 256 1280 L 256 1792 L 1792 1792 L 1792 1536 L 768 1536 L 768 1280 L 1024 1280 L 1024 1024 L 1280 1024 L 1280 768 L 1536 768 L 1536 512 L 1792 512 L 1792 0 Z" class=""></path>
    <path d="M 0 1792 L 2048 1792 " class="baseline"></path>
  </g>
  <g id="c64_us_upper_27" source="c64_us_upper_27.png">
    <path d="M 512 0 L 512 1792 L 1536 1792 L 1536 1536 L 1024 1536 L 1024 256 L 1536 256 L 1536 0 Z" class=""></path>
    <path d="M 0 1792 L 2048 1792 " class="baseline"></path>
  </g>
  <g id="c64_us_upper_28" source="c64_us_upper_28.png">
    <path d="M 1024 0 L 1024 256 L 768 256 L 768 512 L 512 512 L 512 768 L 256 768 L 256 1024 L 512 1024 L 512 1280 L 256 1280 L 256 1536 L 0 1536 L 0 1792 L 1536 1792 L 1536 1536 L 1792 1536 L 1792 1280 L 1536 1280 L 1536 1536 L 768 1536 L 768 1280 L 1024 1280 L 1024 1024 L 1536 1024 L 1536 768 L 1024 768 L 1024 256 L 1536 256 L 1536 512 L 1792 512 L 1792 256 L 1536 256 L 1536 0 Z" class=""></path>
    <path d="M 0 1792 L 2048 1792 " class="baseline"></path>
  </g>
  <g id="c64_us_upper_29" source="c64_us_upper_29.png">
    <path d="M 512 0 L 512 256 L 1024 256 L 1024 1536 L 512 1536 L 512 1792 L 1536 1792 L 1536 0 Z" class=""></path>
    <path d="M 0 1792 L 2048 1792 " class="baseline"></path>
  </g>
  <g id="c64_us_upper_30" source="c64_us_upper_30.png">
    <path d="M 768 256 L 768 512 L 512 512 L 512 768 L 256 768 L 256 1024 L 768 1024 L 768 2048 L 1280 2048 L 1280 1024 L 1792 1024 L 1792 768 L 1536 768 L 1536 512 L 1280 512 L 1280 256 Z" class=""></path>
    <path d="M 0 1792 L 2048 1792 " class="baseline"></path>
  </g>
  <g id="c64_us_upper_31" source="c64_us_upper_31.png">
    <path d="M 768 256 L 768 512 L 512 512 L 512 768 L 256 768 L 256 1280 L 512 1280 L 512 1536 L 768 1536 L 768 1792 L 1024 1792 L 1024 1280 L 2048 1280 L 2048 768 L 1024 768 L 1024 256 Z" class=""></path>
    <path d="M 0 1792 L 2048 1792 " class="baseline"></path>
  </g>
  <g id="c64_us_upper_32" source="c64_us_upper_32.png">
    <path d="" class=""></path>
    <path d="M 0 1792 L 2048 1792 " class="baseline"></path>
  </g>
  <g id="c64_us_upper_33" source="c64_us_upper_33.png">
    <path d="M 768 0 L 768 1024 L 1280 1024 L 1280 0 Z &#xA; M 768 1536 L 768 1792 L 1280 1792 L 1280 1536 Z" class=""></path>
    <path d="M 0 1792 L 2048 1792 " class="baseline"></path>
  </g>
  <g id="c64_us_upper_34" source="c64_us_upper_34.png">
    <path d="M 256 0 L 256 768 L 768 768 L 768 0 Z &#xA; M 1280 0 L 1280 768 L 1792 768 L 1792 0 Z" class=""></path>
    <path d="M 0 1792 L 2048 1792 " class="baseline"></path>
  </g>
  <g id="c64_us_upper_35" source="c64_us_upper_35.png">
    <path d="M 256 0 L 256 512 L 0 512 L 0 768 L 256 768 L 256 1024 L 0 1024 L 0 1280 L 256 1280 L 256 1792 L 768 1792 L 768 1280 L 1280 1280 L 1280 1792 L 1792 1792 L 1792 1280 L 2048 1280 L 2048 1024 L 1792 1024 L 1792 768 L 2048 768 L 2048 512 L 1792 512 L 1792 0 L 1280 0 L 1280 512 L 768 512 L 768 0 Z &#xA; M 768 1024 L 768 768 L 1280 768 L 1280 1024 Z" class=""></path>
    <path d="M 0 1792 L 2048 1792 " class="baseline"></path>
  </g>
  <g id="c64_us_upper_36" source="c64_us_upper_36.png">
    <path d="M 768 0 L 768 256 L 512 256 L 512 512 L 256 512 L 256 768 L 512 768 L 512 1024 L 1280 1024 L 1280 1280 L 256 1280 L 256 1536 L 768 1536 L 768 1792 L 1280 1792 L 1280 1536 L 1536 1536 L 1536 1280 L 1792 1280 L 1792 1024 L 1536 1024 L 1536 768 L 768 768 L 768 512 L 1792 512 L 1792 256 L 1280 256 L 1280 0 Z" class=""></path>
    <path d="M 0 1792 L 2048 1792 " class="baseline"></path>
  </g>
  <g id="c64_us_upper_37" source="c64_us_upper_37.png">
    <path d="M 256 0 L 256 512 L 768 512 L 768 0 Z &#xA; M 1536 0 L 1536 256 L 1280 256 L 1280 512 L 1024 512 L 1024 768 L 768 768 L 768 1024 L 512 1024 L 512 1280 L 256 1280 L 256 1792 L 512 1792 L 512 1536 L 768 1536 L 768 1280 L 1024 1280 L 1024 1024 L 1280 1024 L 1280 768 L 1536 768 L 1536 512 L 1792 512 L 1792 0 Z &#xA; M 1280 1280 L 1280 1792 L 1792 1792 L 1792 1280 Z" class=""></path>
    <path d="M 0 1792 L 2048 1792 " class="baseline"></path>
  </g>
  <g id="c64_us_upper_38" source="c64_us_upper_38.png">
    <path d="M 512 0 L 512 256 L 256 256 L 256 512 L 512 512 L 512 1024 L 256 1024 L 256 1536 L 512 1536 L 512 1792 L 2048 1792 L 2048 1536 L 1792 1536 L 1792 1280 L 2048 1280 L 2048 1024 L 1280 1024 L 1280 768 L 1536 768 L 1536 512 L 1792 512 L 1792 256 L 1536 256 L 1536 0 Z &#xA; M 768 512 L 768 256 L 1280 256 L 1280 512 Z &#xA; M 768 1280 L 768 1024 L 1280 1024 L 1280 1536 L 768 1536 Z" class=""></path>
    <path d="M 0 1792 L 2048 1792 " class="baseline"></path>
  </g>
  <g id="c64_us_upper_39" source="c64_us_upper_39.png">
    <path d="M 1280 0 L 1280 256 L 1024 256 L 1024 512 L 768 512 L 768 768 L 1280 768 L 1280 512 L 1536 512 L 1536 256 L 1792 256 L 1792 0 Z" class=""></path>
    <path d="M 0 1792 L 2048 1792 " class="baseline"></path>
  </g>
  <g id="c64_us_upper_40" source="c64_us_upper_40.png">
    <path d="M 1024 0 L 1024 256 L 768 256 L 768 512 L 512 512 L 512 1280 L 768 1280 L 768 1536 L 1024 1536 L 1024 1792 L 1536 1792 L 1536 1536 L 1280 1536 L 1280 1280 L 1024 1280 L 1024 512 L 1280 512 L 1280 256 L 1536 256 L 1536 0 Z" class=""></path>
    <path d="M 0 1792 L 2048 1792 " class="baseline"></path>
  </g>
  <g id="c64_us_upper_41" source="c64_us_upper_41.png">
    <path d="M 512 0 L 512 256 L 768 256 L 768 512 L 1024 512 L 1024 1280 L 768 1280 L 768 1536 L 512 1536 L 512 1792 L 1024 1792 L 1024 1536 L 1280 1536 L 1280 1280 L 1536 1280 L 1536 512 L 1280 512 L 1280 256 L 1024 256 L 1024 0 Z" class=""></path>
    <path d="M 0 1792 L 2048 1792 " class="baseline"></path>
  </g>
  <g id="c64_us_upper_42" source="c64_us_upper_42.png">
    <path d="M 256 256 L 256 512 L 512 512 L 512 768 L 0 768 L 0 1024 L 512 1024 L 512 1280 L 256 1280 L 256 1536 L 768 1536 L 768 1280 L 1280 1280 L 1280 1536 L 1792 1536 L 1792 1280 L 1536 1280 L 1536 1024 L 2048 1024 L 2048 768 L 1536 768 L 1536 512 L 1792 512 L 1792 256 L 1280 256 L 1280 512 L 768 512 L 768 256 Z" class=""></path>
    <path d="M 0 1792 L 2048 1792 " class="baseline"></path>
  </g>
  <g id="c64_us_upper_43" source="c64_us_upper_43.png">
    <path d="M 768 256 L 768 768 L 256 768 L 256 1024 L 768 1024 L 768 1536 L 1280 1536 L 1280 1024 L 1792 1024 L 1792 768 L 1280 768 L 1280 256 Z" class=""></path>
    <path d="M 0 1792 L 2048 1792 " class="baseline"></path>
  </g>
  <g id="c64_us_upper_44" source="c64_us_upper_44.png">
    <path d="M 768 1280 L 768 1792 L 512 1792 L 512 2048 L 1024 2048 L 1024 1792 L 1280 1792 L 1280 1280 Z" class=""></path>
    <path d="M 0 1792 L 2048 1792 " class="baseline"></path>
  </g>
  <g id="c64_us_upper_45" source="c64_us_upper_45.png">
    <path d="M 256 768 L 256 1024 L 1792 1024 L 1792 768 Z" class=""></path>
    <path d="M 0 1792 L 2048 1792 " class="baseline"></path>
  </g>
  <g id="c64_us_upper_46" source="c64_us_upper_46.png">
    <path d="M 768 1280 L 768 1792 L 1280 1792 L 1280 1280 Z" class=""></path>
    <path d="M 0 1792 L 2048 1792 " class="baseline"></path>
  </g>
  <g id="c64_us_upper_47" source="c64_us_upper_47.png">
    <path d="M 1536 256 L 1536 512 L 1280 512 L 1280 768 L 1024 768 L 1024 1024 L 768 1024 L 768 1280 L 512 1280 L 512 1536 L 256 1536 L 256 1792 L 768 1792 L 768 1536 L 1024 1536 L 1024 1280 L 1280 1280 L 1280 1024 L 1536 1024 L 1536 768 L 1792 768 L 1792 512 L 2048 512 L 2048 256 Z" class=""></path>
    <path d="M 0 1792 L 2048 1792 " class="baseline"></path>
  </g>
  <g id="c64_us_upper_48" source="c64_us_upper_48.png">
    <path d="M 512 0 L 512 256 L 256 256 L 256 1536 L 512 1536 L 512 1792 L 1536 1792 L 1536 1536 L 1792 1536 L 1792 256 L 1536 256 L 1536 0 Z &#xA; M 768 512 L 768 256 L 1280 256 L 1280 512 L 1024 512 L 1024 768 L 768 768 Z &#xA; M 1024 1024 L 1024 768 L 1280 768 L 1280 1536 L 768 1536 L 768 1024 Z" class=""></path>
    <path d="M 0 1792 L 2048 1792 " class="baseline"></path>
  </g>
  <g id="c64_us_upper_49" source="c64_us_upper_49.png">
    <path d="M 768 0 L 768 512 L 512 512 L 512 768 L 768 768 L 768 1536 L 256 1536 L 256 1792 L 1792 1792 L 1792 1536 L 1280 1536 L 1280 0 Z" class=""></path>
    <path d="M 0 1792 L 2048 1792 " class="baseline"></path>
  </g>
  <g id="c64_us_upper_50" source="c64_us_upper_50.png">
    <path d="M 512 0 L 512 256 L 256 256 L 256 512 L 768 512 L 768 256 L 1280 256 L 1280 768 L 1024 768 L 1024 1024 L 512 1024 L 512 1280 L 256 1280 L 256 1792 L 1792 1792 L 1792 1536 L 768 1536 L 768 1280 L 1024 1280 L 1024 1024 L 1536 1024 L 1536 768 L 1792 768 L 1792 256 L 1536 256 L 1536 0 Z" class=""></path>
    <path d="M 0 1792 L 2048 1792 " class="baseline"></path>
  </g>
  <g id="c64_us_upper_51" source="c64_us_upper_51.png">
    <path d="M 512 0 L 512 256 L 256 256 L 256 512 L 768 512 L 768 256 L 1280 256 L 1280 768 L 768 768 L 768 1024 L 1280 1024 L 1280 1536 L 768 1536 L 768 1280 L 256 1280 L 256 1536 L 512 1536 L 512 1792 L 1536 1792 L 1536 1536 L 1792 1536 L 1792 1024 L 1536 1024 L 1536 768 L 1792 768 L 1792 256 L 1536 256 L 1536 0 Z" class=""></path>
    <path d="M 0 1792 L 2048 1792 " class="baseline"></path>
  </g>
  <g id="c64_us_upper_52" source="c64_us_upper_52.png">
    <path d="M 1280 0 L 1280 256 L 1024 256 L 1024 512 L 768 512 L 768 768 L 256 768 L 256 1280 L 1280 1280 L 1280 1792 L 1792 1792 L 1792 1280 L 2048 1280 L 2048 1024 L 1792 1024 L 1792 0 Z &#xA; M 768 1024 L 768 768 L 1280 768 L 1280 1024 Z" class=""></path>
    <path d="M 0 1792 L 2048 1792 " class="baseline"></path>
  </g>
  <g id="c64_us_upper_53" source="c64_us_upper_53.png">
    <path d="M 256 0 L 256 768 L 1280 768 L 1280 1536 L 768 1536 L 768 1280 L 256 1280 L 256 1536 L 512 1536 L 512 1792 L 1536 1792 L 1536 1536 L 1792 1536 L 1792 768 L 1536 768 L 1536 512 L 768 512 L 768 256 L 1792 256 L 1792 0 Z" class=""></path>
    <path d="M 0 1792 L 2048 1792 " class="baseline"></path>
  </g>
  <g id="c64_us_upper_54" source="c64_us_upper_54.png">
    <path d="M 512 0 L 512 256 L 256 256 L 256 1536 L 512 1536 L 512 1792 L 1536 1792 L 1536 1536 L 1792 1536 L 1792 1024 L 1536 1024 L 1536 768 L 768 768 L 768 256 L 1280 256 L 1280 512 L 1792 512 L 1792 256 L 1536 256 L 1536 0 Z &#xA; M 768 1280 L 768 1024 L 1280 1024 L 1280 1536 L 768 1536 Z" class=""></path>
    <path d="M 0 1792 L 2048 1792 " class="baseline"></path>
  </g>
  <g id="c64_us_upper_55" source="c64_us_upper_55.png">
    <path d="M 256 0 L 256 512 L 768 512 L 768 256 L 1280 256 L 1280 512 L 1024 512 L 1024 768 L 768 768 L 768 1792 L 1280 1792 L 1280 768 L 1536 768 L 1536 512 L 1792 512 L 1792 0 Z" class=""></path>
    <path d="M 0 1792 L 2048 1792 " class="baseline"></path>
  </g>
  <g id="c64_us_upper_56" source="c64_us_upper_56.png">
    <path d="M 512 0 L 512 256 L 256 256 L 256 768 L 512 768 L 512 1024 L 256 1024 L 256 1536 L 512 1536 L 512 1792 L 1536 1792 L 1536 1536 L 1792 1536 L 1792 1024 L 1536 1024 L 1536 768 L 1792 768 L 1792 256 L 1536 256 L 1536 0 Z &#xA; M 768 512 L 768 256 L 1280 256 L 1280 768 L 768 768 Z &#xA; M 768 1280 L 768 1024 L 1280 1024 L 1280 1536 L 768 1536 Z" class=""></path>
    <path d="M 0 1792 L 2048 1792 " class="baseline"></path>
  </g>
  <g id="c64_us_upper_57" source="c64_us_upper_57.png">
    <path d="M 512 0 L 512 256 L 256 256 L 256 768 L 512 768 L 512 1024 L 1280 1024 L 1280 1536 L 768 1536 L 768 1280 L 256 1280 L 256 1536 L 512 1536 L 512 1792 L 1536 1792 L 1536 1536 L 1792 1536 L 1792 256 L 1536 256 L 1536 0 Z &#xA; M 768 512 L 768 256 L 1280 256 L 1280 768 L 768 768 Z" class=""></path>
    <path d="M 0 1792 L 2048 1792 " class="baseline"></path>
  </g>
  <g id="c64_us_upper_58" source="c64_us_upper_58.png">
    <path d="M 768 512 L 768 768 L 1280 768 L 1280 512 Z &#xA; M 768 1280 L 768 1536 L 1280 1536 L 1280 1280 Z" class=""></path>
    <path d="M 0 1792 L 2048 1792 " class="baseline"></path>
  </g>
  <g id="c64_us_upper_59" source="c64_us_upper_59.png">
    <path d="M 768 512 L 768 768 L 1280 768 L 1280 512 Z &#xA; M 768 1280 L 768 1792 L 512 1792 L 512 2048 L 1024 2048 L 1024 1792 L 1280 1792 L 1280 1280 Z" class=""></path>
    <path d="M 0 1792 L 2048 1792 " class="baseline"></path>
  </g>
  <g id="c64_us_upper_60" source="c64_us_upper_60.png">
    <path d="M 1024 0 L 1024 256 L 768 256 L 768 512 L 512 512 L 512 768 L 256 768 L 256 1024 L 512 1024 L 512 1280 L 768 1280 L 768 1536 L 1024 1536 L 1024 1792 L 1792 1792 L 1792 1536 L 1280 1536 L 1280 1280 L 1024 1280 L 1024 1024 L 768 1024 L 768 768 L 1024 768 L 1024 512 L 1280 512 L 1280 256 L 1792 256 L 1792 0 Z" class=""></path>
    <path d="M 0 1792 L 2048 1792 " class="baseline"></path>
  </g>
  <g id="c64_us_upper_61" source="c64_us_upper_61.png">
    <path d="M 256 512 L 256 768 L 1792 768 L 1792 512 Z &#xA; M 256 1024 L 256 1280 L 1792 1280 L 1792 1024 Z" class=""></path>
    <path d="M 0 1792 L 2048 1792 " class="baseline"></path>
  </g>
  <g id="c64_us_upper_62" source="c64_us_upper_62.png">
    <path d="M 256 0 L 256 256 L 768 256 L 768 512 L 1024 512 L 1024 768 L 1280 768 L 1280 1024 L 1024 1024 L 1024 1280 L 768 1280 L 768 1536 L 256 1536 L 256 1792 L 1024 1792 L 1024 1536 L 1280 1536 L 1280 1280 L 1536 1280 L 1536 1024 L 1792 1024 L 1792 768 L 1536 768 L 1536 512 L 1280 512 L 1280 256 L 1024 256 L 1024 0 Z" class=""></path>
    <path d="M 0 1792 L 2048 1792 " class="baseline"></path>
  </g>
  <g id="c64_us_upper_63" source="c64_us_upper_63.png">
    <path d="M 512 0 L 512 256 L 256 256 L 256 512 L 768 512 L 768 256 L 1280 256 L 1280 768 L 1024 768 L 1024 1024 L 768 1024 L 768 1280 L 1280 1280 L 1280 1024 L 1536 1024 L 1536 768 L 1792 768 L 1792 256 L 1536 256 L 1536 0 Z &#xA; M 768 1536 L 768 1792 L 1280 1792 L 1280 1536 Z" class=""></path>
    <path d="M 0 1792 L 2048 1792 " class="baseline"></path>
  </g>
  <g id="c64_us_upper_64" source="c64_us_upper_64.png">
    <path d="M 0 768 L 0 1280 L 2048 1280 L 2048 768 Z" class=""></path>
    <path d="M 0 1792 L 2048 1792 " class="baseline"></path>
  </g>
  <g id="c64_us_upper_65" source="c64_us_upper_65.png">
    <path d="M 1024 0 L 1024 256 L 768 256 L 768 512 L 512 512 L 512 768 L 256 768 L 256 1280 L 768 1280 L 768 1536 L 512 1536 L 512 1792 L 1792 1792 L 1792 1536 L 1536 1536 L 1536 1280 L 2048 1280 L 2048 768 L 1792 768 L 1792 512 L 1536 512 L 1536 256 L 1280 256 L 1280 0 Z" class=""></path>
    <path d="M 0 1792 L 2048 1792 " class="baseline"></path>
  </g>
  <g id="c64_us_upper_66" source="c64_us_upper_66.png">
    <path d="M 768 0 L 768 2048 L 1280 2048 L 1280 0 Z" class=""></path>
    <path d="M 0 1792 L 2048 1792 " class="baseline"></path>
  </g>
  <g id="c64_us_upper_67" source="c64_us_upper_67.png">
    <path d="M 0 768 L 0 1280 L 2048 1280 L 2048 768 Z" class=""></path>
    <path d="M 0 1792 L 2048 1792 " class="baseline"></path>
  </g>
  <g id="c64_us_upper_68" source="c64_us_upper_68.png">
    <path d="M 0 512 L 0 1024 L 2048 1024 L 2048 512 Z" class=""></path>
    <path d="M 0 1792 L 2048 1792 " class="baseline"></path>
  </g>
  <g id="c64_us_upper_69" source="c64_us_upper_69.png">
    <path d="M 0 256 L 0 768 L 2048 768 L 2048 256 Z" class=""></path>
    <path d="M 0 1792 L 2048 1792 " class="baseline"></path>
  </g>
  <g id="c64_us_upper_70" source="c64_us_upper_70.png">
    <path d="M 0 1024 L 0 1536 L 2048 1536 L 2048 1024 Z" class=""></path>
    <path d="M 0 1792 L 2048 1792 " class="baseline"></path>
  </g>
  <g id="c64_us_upper_71" source="c64_us_upper_71.png">
    <path d="M 512 0 L 512 2048 L 1024 2048 L 1024 0 Z" class=""></path>
    <path d="M 0 1792 L 2048 1792 " class="baseline"></path>
  </g>
  <g id="c64_us_upper_72" source="c64_us_upper_72.png">
    <path d="M 1024 0 L 1024 2048 L 1536 2048 L 1536 0 Z" class=""></path>
    <path d="M 0 1792 L 2048 1792 " class="baseline"></path>
  </g>
  <g id="c64_us_upper_73" source="c64_us_upper_73.png">
    <path d="M 0 768 L 0 1280 L 512 1280 L 512 1536 L 768 1536 L 768 2048 L 1280 2048 L 1280 1280 L 1024 1280 L 1024 1024 L 768 1024 L 768 768 Z" class=""></path>
    <path d="M 0 1792 L 2048 1792 " class="baseline"></path>
  </g>
  <g id="c64_us_upper_74" source="c64_us_upper_74.png">
    <path d="M 768 0 L 768 768 L 1024 768 L 1024 1024 L 1280 1024 L 1280 1280 L 2048 1280 L 2048 768 L 1536 768 L 1536 512 L 1280 512 L 1280 0 Z" class=""></path>
    <path d="M 0 1792 L 2048 1792 " class="baseline"></path>
  </g>
  <g id="c64_us_upper_75" source="c64_us_upper_75.png">
    <path d="M 768 0 L 768 512 L 512 512 L 512 768 L 0 768 L 0 1280 L 768 1280 L 768 1024 L 1024 1024 L 1024 768 L 1280 768 L 1280 0 Z" class=""></path>
    <path d="M 0 1792 L 2048 1792 " class="baseline"></path>
  </g>
  <g id="c64_us_upper_76" source="c64_us_upper_76.png">
    <path d="M 0 0 L 0 2048 L 2048 2048 L 2048 1536 L 512 1536 L 512 0 Z" class=""></path>
    <path d="M 0 1792 L 2048 1792 " class="baseline"></path>
  </g>
  <g id="c64_us_upper_77" source="c64_us_upper_77.png">
    <path d="M 0 0 L 0 512 L 256 512 L 256 768 L 512 768 L 512 1024 L 768 1024 L 768 1280 L 1024 1280 L 1024 1536 L 1280 1536 L 1280 1792 L 1536 1792 L 1536 2048 L 2048 2048 L 2048 1536 L 1792 1536 L 1792 1280 L 1536 1280 L 1536 1024 L 1280 1024 L 1280 768 L 1024 768 L 1024 512 L 768 512 L 768 256 L 512 256 L 512 0 Z" class=""></path>
    <path d="M 0 1792 L 2048 1792 " class="baseline"></path>
  </g>
  <g id="c64_us_upper_78" source="c64_us_upper_78.png">
    <path d="M 1536 0 L 1536 256 L 1280 256 L 1280 512 L 1024 512 L 1024 768 L 768 768 L 768 1024 L 512 1024 L 512 1280 L 256 1280 L 256 1536 L 0 1536 L 0 2048 L 512 2048 L 512 1792 L 768 1792 L 768 1536 L 1024 1536 L 1024 1280 L 1280 1280 L 1280 1024 L 1536 1024 L 1536 768 L 1792 768 L 1792 512 L 2048 512 L 2048 0 Z" class=""></path>
    <path d="M 0 1792 L 2048 1792 " class="baseline"></path>
  </g>
  <g id="c64_us_upper_79" source="c64_us_upper_79.png">
    <path d="M 0 0 L 0 2048 L 512 2048 L 512 512 L 2048 512 L 2048 0 Z" class=""></path>
    <path d="M 0 1792 L 2048 1792 " class="baseline"></path>
  </g>
  <g id="c64_us_upper_80" source="c64_us_upper_80.png">
    <path d="M 0 0 L 0 512 L 1536 512 L 1536 2048 L 2048 2048 L 2048 0 Z" class=""></path>
    <path d="M 0 1792 L 2048 1792 " class="baseline"></path>
  </g>
  <g id="c64_us_upper_81" source="c64_us_upper_81.png">
    <path d="M 512 256 L 512 512 L 256 512 L 256 1536 L 512 1536 L 512 1792 L 1536 1792 L 1536 1536 L 1792 1536 L 1792 512 L 1536 512 L 1536 256 Z" class=""></path>
    <path d="M 0 1792 L 2048 1792 " class="baseline"></path>
  </g>
  <g id="c64_us_upper_82" source="c64_us_upper_82.png">
    <path d="M 0 1280 L 0 1792 L 2048 1792 L 2048 1280 Z" class=""></path>
    <path d="M 0 1792 L 2048 1792 " class="baseline"></path>
  </g>
  <g id="c64_us_upper_83" source="c64_us_upper_83.png">
    <path d="M 512 0 L 512 256 L 256 256 L 256 1024 L 512 1024 L 512 1280 L 768 1280 L 768 1536 L 1024 1536 L 1024 1792 L 1280 1792 L 1280 1536 L 1536 1536 L 1536 1280 L 1792 1280 L 1792 1024 L 2048 1024 L 2048 256 L 1792 256 L 1792 0 L 1280 0 L 1280 256 L 1024 256 L 1024 0 Z" class=""></path>
    <path d="M 0 1792 L 2048 1792 " class="baseline"></path>
  </g>
  <g id="c64_us_upper_84" source="c64_us_upper_84.png">
    <path d="M 256 0 L 256 2048 L 768 2048 L 768 0 Z" class=""></path>
    <path d="M 0 1792 L 2048 1792 " class="baseline"></path>
  </g>
  <g id="c64_us_upper_85" source="c64_us_upper_85.png">
    <path d="M 1280 768 L 1280 1024 L 1024 1024 L 1024 1280 L 768 1280 L 768 2048 L 1280 2048 L 1280 1536 L 1536 1536 L 1536 1280 L 2048 1280 L 2048 768 Z" class=""></path>
    <path d="M 0 1792 L 2048 1792 " class="baseline"></path>
  </g>
  <g id="c64_us_upper_86" source="c64_us_upper_86.png">
    <path d="M 0 0 L 0 512 L 256 512 L 256 768 L 512 768 L 512 1280 L 256 1280 L 256 1536 L 0 1536 L 0 2048 L 512 2048 L 512 1792 L 768 1792 L 768 1536 L 1280 1536 L 1280 1792 L 1536 1792 L 1536 2048 L 2048 2048 L 2048 1536 L 1792 1536 L 1792 1280 L 1536 1280 L 1536 768 L 1792 768 L 1792 512 L 2048 512 L 2048 0 L 1536 0 L 1536 256 L 1280 256 L 1280 512 L 768 512 L 768 256 L 512 256 L 512 0 Z" class=""></path>
    <path d="M 0 1792 L 2048 1792 " class="baseline"></path>
  </g>
  <g id="c64_us_upper_87" source="c64_us_upper_87.png">
    <path d="M 512 256 L 512 512 L 256 512 L 256 1536 L 512 1536 L 512 1792 L 1536 1792 L 1536 1536 L 1792 1536 L 1792 512 L 1536 512 L 1536 256 Z &#xA; M 768 1024 L 768 768 L 1280 768 L 1280 1280 L 768 1280 Z" class=""></path>
    <path d="M 0 1792 L 2048 1792 " class="baseline"></path>
  </g>
  <g id="c64_us_upper_88" source="c64_us_upper_88.png">
    <path d="M 768 0 L 768 512 L 256 512 L 256 1024 L 768 1024 L 768 1536 L 512 1536 L 512 1792 L 1536 1792 L 1536 1536 L 1280 1536 L 1280 1024 L 1792 1024 L 1792 512 L 1280 512 L 1280 0 Z &#xA; M 768 768 L 768 512 L 1280 512 L 1280 1024 L 768 1024 Z" class=""></path>
    <path d="M 0 1792 L 2048 1792 " class="baseline"></path>
  </g>
  <g id="c64_us_upper_89" source="c64_us_upper_89.png">
    <path d="M 1280 0 L 1280 2048 L 1792 2048 L 1792 0 Z" class=""></path>
    <path d="M 0 1792 L 2048 1792 " class="baseline"></path>
  </g>
  <g id="c64_us_upper_90" source="c64_us_upper_90.png">
    <path d="M 1024 0 L 1024 256 L 768 256 L 768 512 L 512 512 L 512 768 L 256 768 L 256 1024 L 512 1024 L 512 1280 L 768 1280 L 768 1536 L 1024 1536 L 1024 1792 L 1280 1792 L 1280 1536 L 1536 1536 L 1536 1280 L 1792 1280 L 1792 1024 L 2048 1024 L 2048 768 L 1792 768 L 1792 512 L 1536 512 L 1536 256 L 1280 256 L 1280 0 Z" class=""></path>
    <path d="M 0 1792 L 2048 1792 " class="baseline"></path>
  </g>
  <g id="c64_us_upper_91" source="c64_us_upper_91.png">
    <path d="M 768 0 L 768 768 L 0 768 L 0 1280 L 768 1280 L 768 2048 L 1280 2048 L 1280 1280 L 2048 1280 L 2048 768 L 1280 768 L 1280 0 Z" class=""></path>
    <path d="M 0 1792 L 2048 1792 " class="baseline"></path>
  </g>
  <g id="c64_us_upper_92" source="c64_us_upper_92.png">
    <path d="M 0 0 L 0 512 L 512 512 L 512 1024 L 0 1024 L 0 1536 L 512 1536 L 512 2048 L 1024 2048 L 1024 1536 L 512 1536 L 512 1024 L 1024 1024 L 1024 512 L 512 512 L 512 0 Z" class=""></path>
    <path d="M 0 1792 L 2048 1792 " class="baseline"></path>
  </g>
  <g id="c64_us_upper_93" source="c64_us_upper_93.png">
    <path d="M 768 0 L 768 2048 L 1280 2048 L 1280 0 Z" class=""></path>
    <path d="M 0 1792 L 2048 1792 " class="baseline"></path>
  </g>
  <g id="c64_us_upper_94" source="c64_us_upper_94.png">
    <path d="M 1536 512 L 1536 768 L 512 768 L 512 1024 L 256 1024 L 256 1280 L 512 1280 L 512 1792 L 1024 1792 L 1024 1024 L 1280 1024 L 1280 1792 L 1792 1792 L 1792 768 L 2048 768 L 2048 512 Z" class=""></path>
    <path d="M 0 1792 L 2048 1792 " class="baseline"></path>
  </g>
  <g id="c64_us_upper_95" source="c64_us_upper_95.png">
    <path d="M 0 0 L 0 256 L 256 256 L 256 512 L 512 512 L 512 768 L 768 768 L 768 1024 L 1024 1024 L 1024 1280 L 1280 1280 L 1280 1536 L 1536 1536 L 1536 1792 L 1792 1792 L 1792 2048 L 2048 2048 L 2048 0 Z" class=""></path>
    <path d="M 0 1792 L 2048 1792 " class="baseline"></path>
  </g>
  <g id="c64_us_upper_96" source="c64_us_upper_96.png">
    <path d="" class=""></path>
    <path d="M 0 1792 L 2048 1792 " class="baseline"></path>
  </g>
  <g id="c64_us_upper_97" source="c64_us_upper_97.png">
    <path d="M 0 0 L 0 2048 L 1024 2048 L 1024 0 Z" class=""></path>
    <path d="M 0 1792 L 2048 1792 " class="baseline"></path>
  </g>
  <g id="c64_us_upper_98" source="c64_us_upper_98.png">
    <path d="M 0 1024 L 0 2048 L 2048 2048 L 2048 1024 Z" class=""></path>
    <path d="M 0 1792 L 2048 1792 " class="baseline"></path>
  </g>
  <g id="c64_us_upper_99" source="c64_us_upper_99.png">
    <path d="M 0 0 L 0 256 L 2048 256 L 2048 0 Z" class=""></path>
    <path d="M 0 1792 L 2048 1792 " class="baseline"></path>
  </g>
  <g id="c64_us_upper_100" source="c64_us_upper_100.png">
    <path d="M 0 1792 L 0 2048 L 2048 2048 L 2048 1792 Z" class=""></path>
    <path d="M 0 1792 L 2048 1792 " class="baseline"></path>
  </g>
  <g id="c64_us_upper_101" source="c64_us_upper_101.png">
    <path d="M 0 0 L 0 2048 L 512 2048 L 512 0 Z" class=""></path>
    <path d="M 0 1792 L 2048 1792 " class="baseline"></path>
  </g>
  <g id="c64_us_upper_102" source="c64_us_upper_102.png">
    <path d="M 0 0 L 0 512 L 512 512 L 512 1024 L 0 1024 L 0 1536 L 512 1536 L 512 2048 L 1024 2048 L 1024 1536 L 1536 1536 L 1536 2048 L 2048 2048 L 2048 1536 L 1536 1536 L 1536 1024 L 2048 1024 L 2048 512 L 1536 512 L 1536 0 L 1024 0 L 1024 512 L 512 512 L 512 0 Z &#xA; M 1024 768 L 1024 512 L 1536 512 L 1536 1024 L 1024 1024 Z &#xA; M 512 1280 L 512 1024 L 1024 1024 L 1024 1536 L 512 1536 Z" class=""></path>
    <path d="M 0 1792 L 2048 1792 " class="baseline"></path>
  </g>
  <g id="c64_us_upper_103" source="c64_us_upper_103.png">
    <path d="M 1536 0 L 1536 2048 L 2048 2048 L 2048 0 Z" class=""></path>
    <path d="M 0 1792 L 2048 1792 " class="baseline"></path>
  </g>
  <g id="c64_us_upper_104" source="c64_us_upper_104.png">
    <path d="M 0 1024 L 0 1536 L 512 1536 L 512 2048 L 1024 2048 L 1024 1536 L 1536 1536 L 1536 2048 L 2048 2048 L 2048 1536 L 1536 1536 L 1536 1024 L 1024 1024 L 1024 1536 L 512 1536 L 512 1024 Z" class=""></path>
    <path d="M 0 1792 L 2048 1792 " class="baseline"></path>
  </g>
  <g id="c64_us_upper_105" source="c64_us_upper_105.png">
    <path d="M 0 0 L 0 2048 L 256 2048 L 256 1792 L 512 1792 L 512 1536 L 768 1536 L 768 1280 L 1024 1280 L 1024 1024 L 1280 1024 L 1280 768 L 1536 768 L 1536 512 L 1792 512 L 1792 256 L 2048 256 L 2048 0 Z" class=""></path>
    <path d="M 0 1792 L 2048 1792 " class="baseline"></path>
  </g>
  <g id="c64_us_upper_106" source="c64_us_upper_106.png">
    <path d="M 1536 0 L 1536 2048 L 2048 2048 L 2048 0 Z" class=""></path>
    <path d="M 0 1792 L 2048 1792 " class="baseline"></path>
  </g>
  <g id="c64_us_upper_107" source="c64_us_upper_107.png">
    <path d="M 768 0 L 768 2048 L 1280 2048 L 1280 1280 L 2048 1280 L 2048 768 L 1280 768 L 1280 0 Z" class=""></path>
    <path d="M 0 1792 L 2048 1792 " class="baseline"></path>
  </g>
  <g id="c64_us_upper_108" source="c64_us_upper_108.png">
    <path d="M 1024 1024 L 1024 2048 L 2048 2048 L 2048 1024 Z" class=""></path>
    <path d="M 0 1792 L 2048 1792 " class="baseline"></path>
  </g>
  <g id="c64_us_upper_109" source="c64_us_upper_109.png">
    <path d="M 768 0 L 768 1280 L 2048 1280 L 2048 768 L 1280 768 L 1280 0 Z" class=""></path>
    <path d="M 0 1792 L 2048 1792 " class="baseline"></path>
  </g>
  <g id="c64_us_upper_110" source="c64_us_upper_110.png">
    <path d="M 0 768 L 0 1280 L 768 1280 L 768 2048 L 1280 2048 L 1280 768 Z" class=""></path>
    <path d="M 0 1792 L 2048 1792 " class="baseline"></path>
  </g>
  <g id="c64_us_upper_111" source="c64_us_upper_111.png">
    <path d="M 0 1536 L 0 2048 L 2048 2048 L 2048 1536 Z" class=""></path>
    <path d="M 0 1792 L 2048 1792 " class="baseline"></path>
  </g>
  <g id="c64_us_upper_112" source="c64_us_upper_112.png">
    <path d="M 768 768 L 768 2048 L 1280 2048 L 1280 1280 L 2048 1280 L 2048 768 Z" class=""></path>
    <path d="M 0 1792 L 2048 1792 " class="baseline"></path>
  </g>
  <g id="c64_us_upper_113" source="c64_us_upper_113.png">
    <path d="M 768 0 L 768 768 L 0 768 L 0 1280 L 2048 1280 L 2048 768 L 1280 768 L 1280 0 Z" class=""></path>
    <path d="M 0 1792 L 2048 1792 " class="baseline"></path>
  </g>
  <g id="c64_us_upper_114" source="c64_us_upper_114.png">
    <path d="M 0 768 L 0 1280 L 768 1280 L 768 2048 L 1280 2048 L 1280 1280 L 2048 1280 L 2048 768 Z" class=""></path>
    <path d="M 0 1792 L 2048 1792 " class="baseline"></path>
  </g>
  <g id="c64_us_upper_115" source="c64_us_upper_115.png">
    <path d="M 768 0 L 768 768 L 0 768 L 0 1280 L 768 1280 L 768 2048 L 1280 2048 L 1280 0 Z" class=""></path>
    <path d="M 0 1792 L 2048 1792 " class="baseline"></path>
  </g>
  <g id="c64_us_upper_116" source="c64_us_upper_116.png">
    <path d="M 0 0 L 0 2048 L 512 2048 L 512 0 Z" class=""></path>
    <path d="M 0 1792 L 2048 1792 " class="baseline"></path>
  </g>
  <g id="c64_us_upper_117" source="c64_us_upper_117.png">
    <path d="M 0 0 L 0 2048 L 768 2048 L 768 0 Z" class=""></path>
    <path d="M 0 1792 L 2048 1792 " class="baseline"></path>
  </g>
  <g id="c64_us_upper_118" source="c64_us_upper_118.png">
    <path d="M 1280 0 L 1280 2048 L 2048 2048 L 2048 0 Z" class=""></path>
    <path d="M 0 1792 L 2048 1792 " class="baseline"></path>
  </g>
  <g id="c64_us_upper_119" source="c64_us_upper_119.png">
    <path d="M 0 0 L 0 512 L 2048 512 L 2048 0 Z" class=""></path>
    <path d="M 0 1792 L 2048 1792 " class="baseline"></path>
  </g>
  <g id="c64_us_upper_120" source="c64_us_upper_120.png">
    <path d="M 0 0 L 0 768 L 2048 768 L 2048 0 Z" class=""></path>
    <path d="M 0 1792 L 2048 1792 " class="baseline"></path>
  </g>
  <g id="c64_us_upper_121" source="c64_us_upper_121.png">
    <path d="M 0 1280 L 0 2048 L 2048 2048 L 2048 1280 Z" class=""></path>
    <path d="M 0 1792 L 2048 1792 " class="baseline"></path>
  </g>
  <g id="c64_us_upper_122" source="c64_us_upper_122.png">
    <path d="M 1536 0 L 1536 1536 L 0 1536 L 0 2048 L 2048 2048 L 2048 0 Z" class=""></path>
    <path d="M 0 1792 L 2048 1792 " class="baseline"></path>
  </g>
  <g id="c64_us_upper_123" source="c64_us_upper_123.png">
    <path d="M 0 1024 L 0 2048 L 1024 2048 L 1024 1024 Z" class=""></path>
    <path d="M 0 1792 L 2048 1792 " class="baseline"></path>
  </g>
  <g id="c64_us_upper_124" source="c64_us_upper_124.png">
    <path d="M 1024 0 L 1024 1024 L 2048 1024 L 2048 0 Z" class=""></path>
    <path d="M 0 1792 L 2048 1792 " class="baseline"></path>
  </g>
  <g id="c64_us_upper_125" source="c64_us_upper_125.png">
    <path d="M 768 0 L 768 768 L 0 768 L 0 1280 L 1280 1280 L 1280 0 Z" class=""></path>
    <path d="M 0 1792 L 2048 1792 " class="baseline"></path>
  </g>
  <g id="c64_us_upper_126" source="c64_us_upper_126.png">
    <path d="M 0 0 L 0 1024 L 1024 1024 L 1024 0 Z" class=""></path>
    <path d="M 0 1792 L 2048 1792 " class="baseline"></path>
  </g>
  <g id="c64_us_upper_127" source="c64_us_upper_127.png">
    <path d="M 0 0 L 0 1024 L 1024 1024 L 1024 2048 L 2048 2048 L 2048 1024 L 1024 1024 L 1024 0 Z" class=""></path>
    <path d="M 0 1792 L 2048 1792 " class="baseline"></path>
  </g>
</svg>