<svg xmlns="http://www.w3.org/2000/svg" viewBox="-Inf -Inf +Inf +Inf">
  <g id="c64_us_lower_00" source="c64_us_lower_00.png">
    <path d="M 512 0 L 512 256 L 256 256 L 256 1536 L 512 1536 L 512 1792 L 1536 1792 L 1536 1536 L 1792 1536 L 1792 1280 L 1536 1280 L 1536 1536 L 768 1536 L 768 256 L 1280 256 L 1280 512 L 1024 512 L 1024 1024 L 1792 1024 L 1792 256 L 1536 256 L 1536 0 Z" class=""></path>
    <path d="M 0 1792 L 2048 1792 " class="baseline"></path>
  </g>
  <g id="c64_us_lower_01" source="c64_us_lower_01.png">
    <path d="M 512 512 L 512 768 L 1280 768 L 1280 1024 L 512 1024 L 512 1280 L 256 1280 L 256 1536 L 512 1536 L 512 1792 L 1792 1792 L 1792 768 L 1536 768 L 1536 512 Z &#xA; M 768 1536 L 768 1280 L 1280 1280 L 1280 1536 Z" class=""></path>
    <path d="M 0 1792 L 2048 1792 " class="baseline"></path>
  </g>
  <g id="c64_us_lower_02" source="c64_us_lower_02.png">
    <path d="M 256 256 L 256 1792 L 1536 1792 L 1536 1536 L 1792 1536 L 1792 1024 L 1536 1024 L 1536 768 L 768 768 L 768 256 Z &#xA; M 768 1280 L 768 1024 L 1280 1024 L 1280 1536 L 768 1536 Z" class=""></path>
    <path d="M 0 1792 L 2048 1792 " class="baseline"></path>
  </g>
  <g id="c64_us_lower_03" source="c64_us_lower_03.png">
    <path d="M 512 512 L 512 768 L 256 768 L 256 1536 L 512 1536 L 512 1792 L 1536 1792 L 1536 1536 L 768 1536 L 768 768 L 1536 768 L 1536 512 Z" class=""></path>
    <path d="M 0 1792 L 2048 1792 " class="baseline"></path>
  </g>
  <g id="c64_us_lower_04" source="c64_us_lower_04.png">
    <path d="M 1280 256 L 1280 768 L 512 768 L 512 1024 L 256 1024 L 256 1536 L 512 1536 L 512 1792 L 1792 1792 L 1792 256 Z &#xA; M 768 1280 L 768 1024 L 1280 1024 L 1280 1536 L 768 1536 Z" class=""></path>
    <path d="M 0 1792 L 2048 1792 " class="baseline"></path>
  </g>
  <g id="c64_us_lower_05" source="c64_us_lower_05.png">
    <path d="M 512 512 L 512 768 L 256 768 L 256 1536 L 512 1536 L 512 1792 L 1536 1792 L 1536 1536 L 768 1536 L 768 1280 L 1792 1280 L 1792 768 L 1536 768 L 1536 512 Z &#xA; M 768 1024 L 768 768 L 1280 768 L 1280 1024 Z" class=""></path>
    <path d="M 0 1792 L 2048 1792 " class="baseline"></path>
  </g>
  <g id="c64_us_lower_06" source="c64_us_lower_06.png">
    <path d="M 1024 256 L 1024 512 L 768 512 L 768 768 L 512 768 L 512 1024 L 768 1024 L 768 1792 L 1280 1792 L 1280 1024 L 1792 1024 L 1792 768 L 1280 768 L 1280 512 L 1792 512 L 1792 256 Z" class=""></path>
    <path d="M 0 1792 L 2048 1792 " class="baseline"></path>
  </g>
  <g id="c64_us_lower_07" source="c64_us_lower_07.png">
    <path d="M 512 512 L 512 768 L 256 768 L 256 1280 L 512 1280 L 512 1536 L 1280 1536 L 1280 1792 L 256 1792 L 256 2048 L 1536 2048 L 1536 1792 L 1792 1792 L 1792 512 Z &#xA; M 768 1024 L 768 768 L 1280 768 L 1280 1280 L 768 1280 Z" class=""></path>
    <path d="M 0 1792 L 2048 1792 " class="baseline"></path>
  </g>
  <g id="c64_us_lower_08" source="c64_us_lower_08.png">
    <path d="M 256 256 L 256 1792 L 768 1792 L 768 1024 L 1280 1024 L 1280 1792 L 1792 1792 L 1792 1024 L 1536 1024 L 1536 768 L 768 768 L 768 256 Z" class=""></path>
    <path d="M 0 1792 L 2048 1792 " class="baseline"></path>
  </g>
  <g id="c64_us_lower_09" source="c64_us_lower_09.png">
    <path d="M 768 256 L 768 512 L 1280 512 L 1280 256 Z &#xA; M 512 768 L 512 1024 L 768 1024 L 768 1536 L 512 1536 L 512 1792 L 1536 1792 L 1536 1536 L 1280 1536 L 1280 768 Z" class=""></path>
    <path d="M 0 1792 L 2048 1792 " class="baseline"></path>
  </g>
  <g id="c64_us_lower_10" source="c64_us_lower_10.png">
    <path d="M 1280 256 L 1280 512 L 1792 512 L 1792 256 Z &#xA; M 1280 768 L 1280 1792 L 512 1792 L 512 2048 L 1536 2048 L 1536 1792 L 1792 1792 L 1792 768 Z" class=""></path>
    <path d="M 0 1792 L 2048 1792 " class="baseline"></path>
  </g>
  <g id="c64_us_lower_11" source="c64_us_lower_11.png">
    <path d="M 256 256 L 256 1792 L 768 1792 L 768 1280 L 1024 1280 L 1024 1536 L 1280 1536 L 1280 1792 L 1792 1792 L 1792 1536 L 1536 1536 L 1536 1280 L 1280 1280 L 1280 1024 L 1536 1024 L 1536 768 L 1024 768 L 1024 1024 L 768 1024 L 768 256 Z" class=""></path>
    <path d="M 0 1792 L 2048 1792 " class="baseline"></path>
  </g>
  <g id="c64_us_lower_12" source="c64_us_lower_12.png">
    <path d="M 512 256 L 512 512 L 768 512 L 768 1536 L 512 1536 L 512 1792 L 1536 1792 L 1536 1536 L 1280 1536 L 1280 256 Z" class=""></path>
    <path d="M 0 1792 L 2048 1792 " class="baseline"></path>
  </g>
  <g id="c64_us_lower_13" source="c64_us_lower_13.png">
    <path d="M 256 512 L 256 1792 L 768 1792 L 768 1280 L 1024 1280 L 1024 1536 L 1280 1536 L 1280 1280 L 1536 1280 L 1536 1792 L 2048 1792 L 2048 768 L 1792 768 L 1792 512 L 1280 512 L 1280 768 L 768 768 L 768 512 Z" class=""></path>
    <path d="M 0 1792 L 2048 1792 " class="baseline"></path>
  </g>
  <g id="c64_us_lower_14" source="c64_us_lower_14.png">
    <path d="M 256 512 L 256 1792 L 768 1792 L 768 768 L 1280 768 L 1280 1792 L 1792 1792 L 1792 768 L 1536 768 L 1536 512 Z" class=""></path>
    <path d="M 0 1792 L 2048 1792 " class="baseline"></path>
  </g>
  <g id="c64_us_lower_15" source="c64_us_lower_15.png">
    <path d="M 512 512 L 512 768 L 256 768 L 256 1536 L 512 1536 L 512 1792 L 1536 1792 L 1536 1536 L 1792 1536 L 1792 768 L 1536 768 L 1536 512 Z &#xA; M 768 1024 L 768 768 L 1280 768 L 1280 1536 L 768 1536 Z" class=""></path>
    <path d="M 0 1792 L 2048 1792 " class="baseline"></path>
  </g>
  <g id="c64_us_lower_16" source="c64_us_lower_16.png">
    <path d="M 256 512 L 256 2048 L 768 2048 L 768 1536 L 1536 1536 L 1536 1280 L 1792 1280 L 1792 768 L 1536 768 L 1536 512 Z &#xA; M 768 1024 L 768 768 L 1280 768 L 1280 1280 L 768 1280 Z" class=""></path>
    <path d="M 0 1792 L 2048 1792 " class="baseline"></path>
  </g>
  <g id="c64_us_lower_17" source="c64_us_lower_17.png">
    <path d="M 512 512 L 512 768 L 256 768 L 256 1280 L 512 1280 L 512 1536 L 1280 1536 L 1280 2048 L 1792 2048 L 1792 512 Z &#xA; M 768 1024 L 768 768 L 1280 768 L 1280 1280 L 768 1280 Z" class=""></path>
    <path d="M 0 1792 L 2048 1792 " class="baseline"></path>
  </g>
  <g id="c64_us_lower_18" source="c64_us_lower_18.png">
    <path d="M 256 512 L 256 1792 L 768 1792 L 768 768 L 1280 768 L 1280 1024 L 1792 1024 L 1792 768 L 1536 768 L 1536 512 Z" class=""></path>
    <path d="M 0 1792 L 2048 1792 " class="baseline"></path>
  </g>
  <g id="c64_us_lower_19" source="c64_us_lower_19.png">
    <path d="M 512 512 L 512 768 L 256 768 L 256 1024 L 512 1024 L 512 1280 L 1280 1280 L 1280 1536 L 256 1536 L 256 1792 L 1536 1792 L 1536 1536 L 1792 1536 L 1792 1280 L 1536 1280 L 1536 1024 L 768 1024 L 768 768 L 1792 768 L 1792 512 Z" class=""></path>
    <path d="M 0 1792 L 2048 1792 " class="baseline"></path>
  </g>
  <g id="c64_us_lower_20" source="c64_us_lower_20.png">
    <path d="M 768 256 L 768 512 L 256 512 L 256 768 L 768 768 L 768 1536 L 1024 1536 L 1024 1792 L 1792 1792 L 1792 1536 L 1280 1536 L 1280 768 L 1792 768 L 1792 512 L 1280 512 L 1280 256 Z" class=""></path>
    <path d="M 0 1792 L 2048 1792 " class="baseline"></path>
  </g>
  <g id="c64_us_lower_21" source="c64_us_lower_21.png">
    <path d="M 256 512 L 256 1536 L 512 1536 L 512 1792 L 1792 1792 L 1792 512 L 1280 512 L 1280 1536 L 768 1536 L 768 512 Z" class=""></path>
    <path d="M 0 1792 L 2048 1792 " class="baseline"></path>
  </g>
  <g id="c64_us_lower_22" source="c64_us_lower_22.png">
    <path d="M 256 512 L 256 1280 L 512 1280 L 512 1536 L 768 1536 L 768 1792 L 1280 1792 L 1280 1536 L 1536 1536 L 1536 1280 L 1792 1280 L 1792 512 L 1280 512 L 1280 1280 L 768 1280 L 768 512 Z" class=""></path>
    <path d="M 0 1792 L 2048 1792 " class="baseline"></path>
  </g>
  <g id="c64_us_lower_23" source="c64_us_lower_23.png">
    <path d="M 256 512 L 256 1280 L 512 1280 L 512 1792 L 1024 1792 L 1024 1536 L 1280 1536 L 1280 1792 L 1792 1792 L 1792 1280 L 2048 1280 L 2048 512 L 1536 512 L 1536 1024 L 1280 1024 L 1280 768 L 1024 768 L 1024 1024 L 768 1024 L 768 512 Z" class=""></path>
    <path d="M 0 1792 L 2048 1792 " class="baseline"></path>
  </g>
  <g id="c64_us_lower_24" source="c64_us_lower_24.png">
    <path d="M 256 512 L 256 768 L 512 768 L 512 1024 L 768 1024 L 768 1280 L 512 1280 L 512 1536 L 256 1536 L 256 1792 L 768 1792 L 768 1536 L 1280 1536 L 1280 1792 L 1792 1792 L 1792 1536 L 1536 1536 L 1536 1280 L 1280 1280 L 1280 1024 L 1536 1024 L 1536 768 L 1792 768 L 1792 512 L 1280 512 L 1280 768 L 768 768 L 768 512 Z" class=""></path>
    <path d="M 0 1792 L 2048 1792 " class="baseline"></path>
  </g>
  <g id="c64_us_lower_25" source="c64_us_lower_25.png">
    <path d="M 256 512 L 256 1280 L 512 1280 L 512 1536 L 1024 1536 L 1024 1792 L 256 1792 L 256 2048 L 1280 2048 L 1280 1792 L 1536 1792 L 1536 1536 L 1792 1536 L 1792 512 L 1280 512 L 1280 1280 L 768 1280 L 768 512 Z" class=""></path>
    <path d="M 0 1792 L 2048 1792 " class="baseline"></path>
  </g>
  <g id="c64_us_lower_26" source="c64_us_lower_26.png">
    <path d="M 256 512 L 256 768 L 1024 768 L 1024 1024 L 768 1024 L 768 1280 L 512 1280 L 512 1536 L 256 1536 L 256 1792 L 1792 1792 L 1792 1536 L 1024 1536 L 1024 1280 L 1280 1280 L 1280 1024 L 1536 1024 L 1536 768 L 1792 768 L 1792 512 Z" class=""></path>
    <path d="M 0 1792 L 2048 1792 " class="baseline"></path>
  </g>
  <g id="c64_us_lower_27" source="c64_us_lower_27.png">
    <path d="M 512 0 L 512 1792 L 1536 1792 L 1536 1536 L 1024 1536 L 1024 256 L 1536 256 L 1536 0 Z" class=""></path>
    <path d="M 0 1792 L 2048 1792 " class="baseline"></path>
  </g>
  <g id="c64_us_lower_28" source="c64_us_lower_28.png">
    <path d="M 1024 0 L 1024 256 L 768 256 L 768 512 L 512 512 L 512 768 L 256 768 L 256 1024 L 512 1024 L 512 1280 L 256 1280 L 256 1536 L 0 1536 L 0 1792 L 1536 1792 L 1536 1536 L 1792 1536 L 1792 1280 L 1536 1280 L 1536 1536 L 768 1536 L 768 1280 L 1024 1280 L 1024 1024 L 1536 1024 L 1536 768 L 1024 768 L 1024 256 L 1536 256 L 1536 512 L 1792 512 L 1792 256 L 1536 256 L 1536 0 Z" class=""></path>
    <path d="M 0 1792 L 2048 1792 " class="baseline"></path>
  </g>
  <g id="c64_us_lower_29" source="c64_us_lower_29.png">
    <path d="M 512 0 L 512 256 L 1024 256 L 1024 1536 L 512 1536 L 512 1792 L 1536 1792 L 1536 0 Z" class=""></path>
    <path d="M 0 1792 L 2048 1792 " class="baseline"></path>
  </g>
  <g id="c64_us_lower_30" source="c64_us_lower_30.png">
    <path d="M 768 256 L 768 512 L 512 512 L 512 768 L 256 768 L 256 1024 L 768 1024 L 768 2048 L 1280 2048 L 1280 1024 L 1792 1024 L 1792 768 L 1536 768 L 1536 512 L 1280 512 L 1280 256 Z" class=""></path>
    <path d="M 0 1792 L 2048 1792 " class="baseline"></path>
  </g>
  <g id="c64_us_lower_31" source="c64_us_lower_31.png">
    <path d="M 768 256 L 768 512 L 512 512 L 512 768 L 256 768 L 256 1280 L 512 1280 L 512 1536 L 768 1536 L 768 1792 L 1024 1792 L 1024 1280 L 2048 1280 L 2048 768 L 1024 768 L 1024 256 Z" class=""></path>
    <path d="M 0 1792 L 2048 1792 " class="baseline"></path>
  </g>
  <g id="c64_us_lower_32" source="c64_us_lower_32.png">
    <path d="" class=""></path>
    <path d="M 0 1792 L 2048 1792 " class="baseline"></path>
  </g>
  <g id="c64_us_lower_33" source="c64_us_lower_33.png">
    <path d="M 768 0 L 768 1024 L 1280 1024 L 1280 0 Z &#xA; M 768 1536 L 768 1792 L 1280 1792 L 1280 1536 Z" class=""></path>
    <path d="M 0 1792 L 2048 1792 " class="baseline"></path>
  </g>
  <g id="c64_us_lower_34" source="c64_us_lower_34.png">
    <path d="M 256 0 L 256 768 L 768 768 L 768 0 Z &#xA; M 1280 0 L 1280 768 L 1792 768 L 1792 0 Z" class=""></path>
    <path d="M 0 1792 L 2048 1792 " class="baseline"></path>
  </g>
  <g id="c64_us_lower_35" source="c64_us_lower_35.png">
    <path d="M 256 0 L 256 512 L 0 512 L 0 768 L 256 768 L 256 1024 L 0 1024 L 0 1280 L 256 1280 L 256 1792 L 768 1792 L 768 1280 L 1280 1280 L 1280 1792 L 1792 1792 L 1792 1280 L 2048 1280 L 2048 1024 L 1792 1024 L 1792 768 L 2048 768 L 2048 512 L 1792 512 L 1792 0 L 1280 0 L 1280 512 L 768 512 L 768 0 Z &#xA; M 768 1024 L 768 768 L 1280 768 L 1280 1024 Z" class=""></path>
    <path d="M 0 1792 L 2048 1792 " class="baseline"></path>
  </g>
  <g id="c64_us_lower_36" source="c64_us_lower_36.png">
    <path d="M 768 0 L 768 256 L 512 256 L 512 512 L 256 512 L 256 768 L 512 768 L 512 1024 L 1280 1024 L 1280 1280 L 256 1280 L 256 1536 L 768 1536 L 768 1792 L 1280 1792 L 1280 1536 L 1536 1536 L 1536 1280 L 1792 1280 L 1792 1024 L 1536 1024 L 1536 768 L 768 768 L 768 512 L 1792 512 L 1792 256 L 1280 256 L 1280 0 Z" class=""></path>
    <path d="M 0 1792 L 2048 1792 " class="baseline"></path>
  </g>
  <g id="c64_us_lower_37" source="c64_us_lower_37.png">
    <path d="M 256 0 L 256 512 L 768 512 L 768 0 Z &#xA; M 1536 0 L 1536 256 L 1280 256 L 1280 512 L 1024 512 L 1024 768 L 768 768 L 768 1024 L 512 1024 L 512 1280 L 256 1280 L 256 1792 L 512 1792 L 512 1536 L 768 1536 L 768 1280 L 1024 1280 L 1024 1024 L 1280 1024 L 1280 768 L 1536 768 L 1536 512 L 1792 512 L 1792 0 Z &#xA; M 1280 1280 L 1280 1792 L 1792 1792 L 1792 1280 Z" class=""></path>
    <path d="M 0 1792 L 2048 1792 " class="baseline"></path>
  </g>
  <g id="c64_us_lower_38" source="c64_us_lower_38.png">
    <path d="M 512 0 L 512 256 L 256 256 L 256 512 L 512 512 L 512 1024 L 256 1024 L 256 1536 L 512 1536 L 512 1792 L 2048 1792 L 2048 1536 L 1792 1536 L 1792 1280 L 2048 1280 L 2048 1024 L 1280 1024 L 1280 768 L 1536 768 L 1536 512 L 1792 512 L 1792 256 L 1536 256 L 1536 0 Z &#xA; M 768 512 L 768 256 L 1280 256 L 1280 512 Z &#xA; M 768 1280 L 768 1024 L 1280 1024 L 1280 1536 L 768 1536 Z" class=""></path>
    <path d="M 0 1792 L 2048 1792 " class="baseline"></path>
  </g>
  <g id="c64_us_lower_39" source="c64_us_lower_39.png">
    <path d="M 1280 0 L 1280 256 L 1024 256 L 1024 512 L 768 512 L 768 768 L 1280 768 L 1280 512 L 1536 512 L 1536 256 L 1792 256 L 1792 0 Z" class=""></path>
    <path d="M 0 1792 L 2048 1792 " class="baseline"></path>
  </g>
  <g id="c64_us_lower_40" source="c64_us_lower_40.png">
    <path d="M 1024 0 L 1024 256 L 768 256 L 768 512 L 512 512 L 512 1280 L 768 1280 L 768 1536 L 1024 1536 L 1024 1792 L 1536 1792 L 1536 1536 L 1280 1536 L 1280 1280 L 1024 1280 L 1024 512 L 1280 512 L 1280 256 L 1536 256 L 1536 0 Z" class=""></path>
    <path d="M 0 1792 L 2048 1792 " class="baseline"></path>
  </g>
  <g id="c64_us_lower_41" source="c64_us_lower_41.png">
    <path d="M 512 0 L 512 256 L 768 256 L 768 512 L 1024 512 L 1024 1280 L 768 1280 L 768 1536 L 512 1536 L 512 1792 L 1024 1792 L 1024 1536 L 1280 1536 L 1280 1280 L 1536 1280 L 1536 512 L 1280 512 L 1280 256 L 1024 256 L 1024 0 Z" class=""></path>
    <path d="M 0 1792 L 2048 1792 " class="baseline"></path>
  </g>
  <g id="c64_us_lower_42" source="c64_us_lower_42.png">
    <path d="M 256 256 L 256 512 L 512 512 L 512 768 L 0 768 L 0 1024 L 512 1024 L 512 1280 L 256 1280 L 256 1536 L 768 1536 L 768 1280 L 1280 1280 L 1280 1536 L 1792 1536 L 1792 1280 L 1536 1280 L 1536 1024 L 2048 1024 L 2048 768 L 1536 768 L 1536 512 L 1792 512 L 1792 256 L 1280 256 L 1280 512 L 768 512 L 768 256 Z" class=""></path>
    <path d="M 0 1792 L 2048 1792 " class="baseline"></path>
  </g>
  <g id="c64_us_lower_43" source="c64_us_lower_43.png">
    <path d="M 768 256 L 768 768 L 256 768 L 256 1024 L 768 1024 L 768 1536 L 1280 1536 L 1280 1024 L 1792 1024 L 1792 768 L 1280 768 L 1280 256 Z" class=""></path>
    <path d="M 0 1792 L 2048 1792 " class="baseline"></path>
  </g>
  <g id="c64_us_lower_44" source="c64_us_lower_44.png">
    <path d="M 768 1280 L 768 1792 L 512 1792 L 512 2048 L 1024 2048 L 1024 1792 L 1280 1792 L 1280 1280 Z" class=""></path>
    <path d="M 0 1792 L 2048 1792 " class="baseline"></path>
  </g>
  <g id="c64_us_lower_45" source="c64_us_lower_45.png">
    <path d="M 256 768 L 256 1024 L 1792 1024 L 1792 768 Z" class=""></path>
    <path d="M 0 1792 L 2048 1792 " class="baseline"></path>
  </g>
  <g id="c64_us_lower_46" source="c64_us_lower_46.png">
    <path d="M 768 1280 L 768 1792 L 1280 1792 L 1280 1280 Z" class=""></path>
    <path d="M 0 1792 L 2048 1792 " class="baseline"></path>
  </g>
  <g id="c64_us_lower_47" source="c64_us_lower_47.png">
    <path d="M 1536 256 L 1536 512 L 1280 512 L 1280 768 L 1024 768 L 1024 1024 L 768 1024 L 768 1280 L 512 1280 L 512 1536 L 256 1536 L 256 1792 L 768 1792 L 768 1536 L 1024 1536 L 1024 1280 L 1280 1280 L 1280 1024 L 1536 1024 L 1536 768 L 1792 768 L 1792 512 L 2048 512 L 2048 256 Z" class=""></path>
    <path d="M 0 1792 L 2048 1792 " class="baseline"></path>
  </g>
  <g id="c64_us_lower_48" source="c64_us_lower_48.png">
    <path d="M 512 0 L 512 256 L 256 256 L 256 1536 L 512 1536 L 512 1792 L 1536 1792 L 1536 1536 L 1792 1536 L 1792 256 L 1536 256 L 1536 0 Z &#xA; M 768 512 L 768 256 L 1280 256 L 1280 512 L 1024 512 L 1024 768 L 768 768 Z &#xA; M 1024 1024 L 1024 768 L 1280 768 L 1280 1536 L 768 1536 L 768 1024 Z" class=""></path>
    <path d="M 0 1792 L 2048 1792 " class="baseline"></path>
  </g>
  <g id="c64_us_lower_49" source="c64_us_lower_49.png">
    <path d="M 768 0 L 768 512 L 512 512 L 512 768 L 768 768 L 768 1536 L 256 1536 L 256 1792 L 1792 1792 L 1792 1536 L 1280 1536 L 1280 0 Z" class=""></path>
    <path d="M 0 1792 L 2048 1792 " class="baseline"></path>
  </g>
  <g id="c64_us_lower_50" source="c64_us_lower_50.png">
    <path d="M 512 0 L 512 256 L 256 256 L 256 512 L 768 512 L 768 256 L 1280 256 L 1280 768 L 1024 768 L 1024 1024 L 512 1024 L 512 1280 L 256 1280 L 256 1792 L 1792 1792 L 1792 1536 L 768 1536 L 768 1280 L 1024 1280 L 1024 1024 L 1536 1024 L 1536 768 L 1792 768 L 1792 256 L 1536 256 L 1536 0 Z" class=""></path>
    <path d="M 0 1792 L 2048 1792 " class="baseline"></path>
  </g>
  <g id="c64_us_lower_51" source="c64_us_lower_51.png">
    <path d="M 512 0 L 512 256 L 256 256 L 256 512 L 768 512 L 768 256 L 1280 256 L 1280 768 L 768 768 L 768 1024 L 1280 1024 L 1280 1536 L 768 1536 L 768 1280 L 256 1280 L 256 1536 L 512 1536 L 512 1792 L 1536 1792 L 1536 1536 L 1792 1536 L 1792 1024 L 1536 1024 L 1536 768 L 1792 768 L 1792 256 L 1536 256 L 1536 0 Z" class=""></path>
    <path d="M 0 1792 L 2048 1792 " class="baseline"></path>
  </g>
  <g id="c64_us_lower_52" source="c64_us_lower_52.png">
    <path d="M 1280 0 L 1280 256 L 1024 256 L 1024 512 L 768 512 L 768 768 L 256 768 L 256 1280 L 1280 1280 L 1280 1792 L 1792 1792 L 1792 1280 L 2048 1280 L 2048 1024 L 1792 1024 L 1792 0 Z &#xA; M 768 1024 L 768 768 L 1280 768 L 1280 1024 Z" class=""></path>
    <path d="M 0 1792 L 2048 1792 " class="baseline"></path>
  </g>
  <g id="c64_us_lower_53" source="c64_us_lower_53.png">
    <path d="M 256 0 L 256 768 L 1280 768 L 1280 1536 L 768 1536 L 768 1280 L 256 1280 L 256 1536 L 512 1536 L 512 1792 L 1536 1792 L 1536 1536 L 1792 1536 L 1792 768 L 1536 768 L 1536 512 L 768 512 L 768 256 L 1792 256 L 1792 0 Z" class=""></path>
    <path d="M 0 1792 L 2048 1792 " class="baseline"></path>
  </g>
  <g id="c64_us_lower_54" source="c64_us_lower_54.png">
    <path d="M 512 0 L 512 256 L 256 256 L 256 1536 L 512 1536 L 512 1792 L 1536 1792 L 1536 1536 L 1792 1536 L 1792 1024 L 1536 1024 L 1536 768 L 768 768 L 768 256 L 1280 256 L 1280 512 L 1792 512 L 1792 256 L 1536 256 L 1536 0 Z &#xA; M 768 1280 L 768 1024 L 1280 1024 L 1280 1536 L 768 1536 Z" class=""></path>
    <path d="M 0 1792 L 2048 1792 " class="baseline"></path>
  </g>
  <g id="c64_us_lower_55" source="c64_us_lower_55.png">
    <path d="M 256 0 L 256 512 L 768 512 L 768 256 L 1280 256 L 1280 512 L 1024 512 L 1024 768 L 768 768 L 768 1792 L 1280 1792 L 1280 768 L 1536 768 L 1536 512 L 1792 512 L 1792 0 Z" class=""></path>
    <path d="M 0 1792 L 2048 1792 " class="baseline"></path>
  </g>
  <g id="c64_us_lower_56" source="c64_us_lower_56.png">
    <path d="M 512 0 L 512 256 L 256 256 L 256 768 L 512 768 L 512 1024 L 256 1024 L 256 1536 L 512 1536 L 512 1792 L 1536 1792 L 1536 1536 L 1792 1536 L 1792 1024 L 1536 1024 L 1536 768 L 1792 768 L 1792 256 L 1536 256 L 1536 0 Z &#xA; M 768 512 L 768 256 L 1280 256 L 1280 768 L 768 768 Z &#xA; M 768 1280 L 768 1024 L 1280 1024 L 1280 1536 L 768 1536 Z" class=""></path>
    <path d="M 0 1792 L 2048 1792 " class="baseline"></path>
  </g>
  <g id="c64_us_lower_57" source="c64_us_lower_57.png">
    <path d="M 512 0 L 512 256 L 256 256 L 256 768 L 512 768 L 512 1024 L 1280 1024 L 1280 1536 L 768 1536 L 768 1280 L 256 1280 L 256 1536 L 512 1536 L 512 1792 L 1536 1792 L 1536 1536 L 1792 1536 L 1792 256 L 1536 256 L 1536 0 Z &#xA; M 768 512 L 768 256 L 1280 256 L 1280 768 L 768 768 Z" class=""></path>
    <path d="M 0 1792 L 2048 1792 " class="baseline"></path>
  </g>
  <g id="c64_us_lower_58" source="c64_us_lower_58.png">
    <path d="M 768 512 L 768 768 L 1280 768 L 1280 512 Z &#xA; M 768 1280 L 768 1536 L 1280 1536 L 1280 1280 Z" class=""></path>
    <path d="M 0 1792 L 2048 1792 " class="baseline"></path>
  </g>
  <g id="c64_us_lower_59" source="c64_us_lower_59.png">
    <path d="M 768 512 L 768 768 L 1280 768 L 1280 512 Z &#xA; M 768 1280 L 768 1792 L 512 1792 L 512 2048 L 1024 2048 L 1024 1792 L 1280 1792 L 1280 1280 Z" class=""></path>
    <path d="M 0 1792 L 2048 1792 " class="baseline"></path>
  </g>
  <g id="c64_us_lower_60" source="c64_us_lower_60.png">
    <path d="M 1024 0 L 1024 256 L 768 256 L 768 512 L 512 512 L 512 768 L 256 768 L 256 1024 L 512 1024 L 512 1280 L 768 1280 L 768 1536 L 1024 1536 L 1024 1792 L 1792 1792 L 1792 1536 L 1280 1536 L 1280 1280 L 1024 1280 L 1024 1024 L 768 1024 L 768 768 L 1024 768 L 1024 512 L 1280 512 L 1280 256 L 1792 256 L 1792 0 Z" class=""></path>
    <path d="M 0 1792 L 2048 1792 " class="baseline"></path>
  </g>
  <g id="c64_us_lower_61" source="c64_us_lower_61.png">
    <path d="M 256 512 L 256 768 L 1792 768 L 1792 512 Z &#xA; M 256 1024 L 256 1280 L 1792 1280 L 1792 1024 Z" class=""></path>
    <path d="M 0 1792 L 2048 1792 " class="baseline"></path>
  </g>
  <g id="c64_us_lower_62" source="c64_us_lower_62.png">
    <path d="M 256 0 L 256 256 L 768 256 L 768 512 L 1024 512 L 1024 768 L 1280 768 L 1280 1024 L 1024 1024 L 1024 1280 L 768 1280 L 768 1536 L 256 1536 L 256 1792 L 1024 1792 L 1024 1536 L 1280 1536 L 1280 1280 L 1536 1280 L 1536 1024 L 1792 1024 L 1792 768 L 1536 768 L 1536 512 L 1280 512 L 1280 256 L 1024 256 L 1024 0 Z" class=""></path>
    <path d="M 0 1792 L 2048 1792 " class="baseline"></path>
  </g>
  <g id="c64_us_lower_63" source="c64_us_lower_63.png">
    <path d="M 512 0 L 512 256 L 256 256 L 256 512 L 768 512 L 768 256 L 1280 256 L 1280 768 L 1024 768 L 1024 1024 L 768 1024 L 768 1280 L 1280 1280 L 1280 1024 L 1536 1024 L 1536 768 L 1792 768 L 1792 256 L 1536 256 L 1536 0 Z &#xA; M 768 1536 L 768 1792 L 1280 1792 L 1280 1536 Z" class=""></path>
    <path d="M 0 1792 L 2048 1792 " class="baseline"></path>
  </g>
  <g id="c64_us_lower_64" source="c64_us_lower_64.png">
    <path d="M 0 768 L 0 1280 L 2048 1280 L 2048 768 Z" class=""></path>
    <path d="M 0 1792 L 2048 1792 " class="baseline"></path>
  </g>
  <g id="c64_us_lower_65" source="c64_us_lower_65.png">
    <path d="M 768 0 L 768 256 L 512 256 L 512 512 L 256 512 L 256 1792 L 768 1792 L 768 1024 L 1280 1024 L 1280 1792 L 1792 1792 L 1792 512 L 1536 512 L 1536 256 L 1280 256 L 1280 0 Z &#xA; M 768 768 L 768 512 L 1280 512 L 1280 768 Z" class=""></path>
    <path d="M 0 1792 L 2048 1792 " class="baseline"></path>
  </g>
  <g id="c64_us_lower_66" source="c64_us_lower_66.png">
    <path d="M 256 0 L 256 1792 L 1536 1792 L 1536 1536 L 1792 1536 L 1792 1024 L 1536 1024 L 1536 768 L 1792 768 L 1792 256 L 1536 256 L 1536 0 Z &#xA; M 768 512 L 768 256 L 1280 256 L 1280 768 L 768 768 Z &#xA; M 768 1280 L 768 1024 L 1280 1024 L 1280 1536 L 768 1536 Z" class=""></path>
    <path d="M 0 1792 L 2048 1792 " class="baseline"></path>
  </g>
  <g id="c64_us_lower_67" source="c64_us_lower_67.png">
    <path d="M 512 0 L 512 256 L 256 256 L 256 1536 L 512 1536 L 512 1792 L 1536 1792 L 1536 1536 L 1792 1536 L 1792 1280 L 1280 1280 L 1280 1536 L 768 1536 L 768 256 L 1280 256 L 1280 512 L 1792 512 L 1792 256 L 1536 256 L 1536 0 Z" class=""></path>
    <path d="M 0 1792 L 2048 1792 " class="baseline"></path>
  </g>
  <g id="c64_us_lower_68" source="c64_us_lower_68.png">
    <path d="M 256 0 L 256 1792 L 1280 1792 L 1280 1536 L 1536 1536 L 1536 1280 L 1792 1280 L 1792 512 L 1536 512 L 1536 256 L 1280 256 L 1280 0 Z &#xA; M 768 512 L 768 256 L 1024 256 L 1024 512 L 1280 512 L 1280 1280 L 1024 1280 L 1024 1536 L 768 1536 Z" class=""></path>
    <path d="M 0 1792 L 2048 1792 " class="baseline"></path>
  </g>
  <g id="c64_us_lower_69" source="c64_us_lower_69.png">
    <path d="M 256 0 L 256 1792 L 1792 1792 L 1792 1536 L 768 1536 L 768 1024 L 1280 1024 L 1280 768 L 768 768 L 768 256 L 1792 256 L 1792 0 Z" class=""></path>
    <path d="M 0 1792 L 2048 1792 " class="baseline"></path>
  </g>
  <g id="c64_us_lower_70" source="c64_us_lower_70.png">
    <path d="M 256 0 L 256 1792 L 768 1792 L 768 1024 L 1280 1024 L 1280 768 L 768 768 L 768 256 L 1792 256 L 1792 0 Z" class=""></path>
    <path d="M 0 1792 L 2048 1792 " class="baseline"></path>
  </g>
  <g id="c64_us_lower_71" source="c64_us_lower_71.png">
    <path d="M 512 0 L 512 256 L 256 256 L 256 1536 L 512 1536 L 512 1792 L 1536 1792 L 1536 1536 L 1792 1536 L 1792 768 L 1024 768 L 1024 1024 L 1280 1024 L 1280 1536 L 768 1536 L 768 256 L 1280 256 L 1280 512 L 1792 512 L 1792 256 L 1536 256 L 1536 0 Z" class=""></path>
    <path d="M 0 1792 L 2048 1792 " class="baseline"></path>
  </g>
  <g id="c64_us_lower_72" source="c64_us_lower_72.png">
    <path d="M 256 0 L 256 1792 L 768 1792 L 768 1024 L 1280 1024 L 1280 1792 L 1792 1792 L 1792 0 L 1280 0 L 1280 768 L 768 768 L 768 0 Z" class=""></path>
    <path d="M 0 1792 L 2048 1792 " class="baseline"></path>
  </g>
  <g id="c64_us_lower_73" source="c64_us_lower_73.png">
    <path d="M 512 0 L 512 256 L 768 256 L 768 1536 L 512 1536 L 512 1792 L 1536 1792 L 1536 1536 L 1280 1536 L 1280 256 L 1536 256 L 1536 0 Z" class=""></path>
    <path d="M 0 1792 L 2048 1792 " class="baseline"></path>
  </g>
  <g id="c64_us_lower_74" source="c64_us_lower_74.png">
    <path d="M 768 0 L 768 256 L 1024 256 L 1024 1536 L 768 1536 L 768 1280 L 256 1280 L 256 1536 L 512 1536 L 512 1792 L 1280 1792 L 1280 1536 L 1536 1536 L 1536 256 L 1792 256 L 1792 0 Z" class=""></path>
    <path d="M 0 1792 L 2048 1792 " class="baseline"></path>
  </g>
  <g id="c64_us_lower_75" source="c64_us_lower_75.png">
    <path d="M 256 0 L 256 1792 L 768 1792 L 768 1280 L 1024 1280 L 1024 1536 L 1280 1536 L 1280 1792 L 1792 1792 L 1792 1536 L 1536 1536 L 1536 1280 L 1280 1280 L 1280 1024 L 1024 1024 L 1024 768 L 1280 768 L 1280 512 L 1536 512 L 1536 256 L 1792 256 L 1792 0 L 1280 0 L 1280 256 L 1024 256 L 1024 512 L 768 512 L 768 0 Z" class=""></path>
    <path d="M 0 1792 L 2048 1792 " class="baseline"></path>
  </g>
  <g id="c64_us_lower_76" source="c64_us_lower_76.png">
    <path d="M 256 0 L 256 1792 L 1792 1792 L 1792 1536 L 768 1536 L 768 0 Z" class=""></path>
    <path d="M 0 1792 L 2048 1792 " class="baseline"></path>
  </g>
  <g id="c64_us_lower_77" source="c64_us_lower_77.png">
    <path d="M 256 0 L 256 1792 L 768 1792 L 768 768 L 1024 768 L 1024 1024 L 1280 1024 L 1280 768 L 1536 768 L 1536 1792 L 2048 1792 L 2048 0 L 1536 0 L 1536 256 L 1280 256 L 1280 512 L 1024 512 L 1024 256 L 768 256 L 768 0 Z" class=""></path>
    <path d="M 0 1792 L 2048 1792 " class="baseline"></path>
  </g>
  <g id="c64_us_lower_78" source="c64_us_lower_78.png">
    <path d="M 256 0 L 256 1792 L 768 1792 L 768 1024 L 1024 1024 L 1024 1280 L 1280 1280 L 1280 1792 L 1792 1792 L 1792 0 L 1280 0 L 1280 512 L 1024 512 L 1024 256 L 768 256 L 768 0 Z" class=""></path>
    <path d="M 0 1792 L 2048 1792 " class="baseline"></path>
  </g>
  <g id="c64_us_lower_79" source="c64_us_lower_79.png">
    <path d="M 512 0 L 512 256 L 256 256 L 256 1536 L 512 1536 L 512 1792 L 1536 1792 L 1536 1536 L 1792 1536 L 1792 256 L 1536 256 L 1536 0 Z &#xA; M 768 512 L 768 256 L 1280 256 L 1280 1536 L 768 1536 Z" class=""></path>
    <path d="M 0 1792 L 2048 1792 " class="baseline"></path>
  </g>
  <g id="c64_us_lower_80" source="c64_us_lower_80.png">
    <path d="M 256 0 L 256 1792 L 768 1792 L 768 1024 L 1536 1024 L 1536 768 L 1792 768 L 1792 256 L 1536 256 L 1536 0 Z &#xA; M 768 512 L 768 256 L 1280 256 L 1280 768 L 768 768 Z" class=""></path>
    <path d="M 0 1792 L 2048 1792 " class="baseline"></path>
  </g>
  <g id="c64_us_lower_81" source="c64_us_lower_81.png">
    <path d="M 512 0 L 512 256 L 256 256 L 256 1280 L 512 1280 L 512 1536 L 1024 1536 L 1024 1792 L 1792 1792 L 1792 1536 L 1536 1536 L 1536 1280 L 1792 1280 L 1792 256 L 1536 256 L 1536 0 Z &#xA; M 768 512 L 768 256 L 1280 256 L 1280 1280 L 768 1280 Z" class=""></path>
    <path d="M 0 1792 L 2048 1792 " class="baseline"></path>
  </g>
  <g id="c64_us_lower_82" source="c64_us_lower_82.png">
    <path d="M 256 0 L 256 1792 L 768 1792 L 768 1280 L 1024 1280 L 1024 1536 L 1280 1536 L 1280 1792 L 1792 1792 L 1792 1536 L 1536 1536 L 1536 1280 L 1280 1280 L 1280 1024 L 1536 1024 L 1536 768 L 1792 768 L 1792 256 L 1536 256 L 1536 0 Z &#xA; M 768 512 L 768 256 L 1280 256 L 1280 768 L 768 768 Z" class=""></path>
    <path d="M 0 1792 L 2048 1792 " class="baseline"></path>
  </g>
  <g id="c64_us_lower_83" source="c64_us_lower_83.png">
    <path d="M 512 0 L 512 256 L 256 256 L 256 768 L 512 768 L 512 1024 L 1280 1024 L 1280 1536 L 768 1536 L 768 1280 L 256 1280 L 256 1536 L 512 1536 L 512 1792 L 1536 1792 L 1536 1536 L 1792 1536 L 1792 1024 L 1536 1024 L 1536 768 L 768 768 L 768 256 L 1280 256 L 1280 512 L 1792 512 L 1792 256 L 1536 256 L 1536 0 Z" class=""></path>
    <path d="M 0 1792 L 2048 1792 " class="baseline"></path>
  </g>
  <g id="c64_us_lower_84" source="c64_us_lower_84.png">
    <path d="M 256 0 L 256 256 L 768 256 L 768 1792 L 1280 1792 L 1280 256 L 1792 256 L 1792 0 Z" class=""></path>
    <path d="M 0 1792 L 2048 1792 " class="baseline"></path>
  </g>
  <g id="c64_us_lower_85" source="c64_us_lower_85.png">
    <path d="M 256 0 L 256 1536 L 512 1536 L 512 1792 L 1536 1792 L 1536 1536 L 1792 1536 L 1792 0 L 1280 0 L 1280 1536 L 768 1536 L 768 0 Z" class=""></path>
    <path d="M 0 1792 L 2048 1792 " class="baseline"></path>
  </g>
  <g id="c64_us_lower_86" source="c64_us_lower_86.png">
    <path d="M 256 0 L 256 1280 L 512 1280 L 512 1536 L 768 1536 L 768 1792 L 1280 1792 L 1280 1536 L 1536 1536 L 1536 1280 L 1792 1280 L 1792 0 L 1280 0 L 1280 1280 L 768 1280 L 768 0 Z" class=""></path>
    <path d="M 0 1792 L 2048 1792 " class="baseline"></path>
  </g>
  <g id="c64_us_lower_87" source="c64_us_lower_87.png">
    <path d="M 256 0 L 256 1792 L 768 1792 L 768 1536 L 1024 1536 L 1024 1280 L 1280 1280 L 1280 1536 L 1536 1536 L 1536 1792 L 2048 1792 L 2048 0 L 1536 0 L 1536 1024 L 1280 1024 L 1280 768 L 1024 768 L 1024 1024 L 768 1024 L 768 0 Z" class=""></path>
    <path d="M 0 1792 L 2048 1792 " class="baseline"></path>
  </g>
  <g id="c64_us_lower_88" source="c64_us_lower_88.png">
    <path d="M 256 0 L 256 512 L 512 512 L 512 768 L 768 768 L 768 1024 L 512 1024 L 512 1280 L 256 1280 L 256 1792 L 768 1792 L 768 1280 L 1280 1280 L 1280 1792 L 1792 1792 L 1792 1280 L 1536 1280 L 1536 1024 L 1280 1024 L 1280 768 L 1536 768 L 1536 512 L 1792 512 L 1792 0 L 1280 0 L 1280 512 L 768 512 L 768 0 Z" class=""></path>
    <path d="M 0 1792 L 2048 1792 " class="baseline"></path>
  </g>
  <g id="c64_us_lower_89" source="c64_us_lower_89.png">
    <path d="M 256 0 L 256 768 L 512 768 L 512 1024 L 768 1024 L 768 1792 L 1280 1792 L 1280 1024 L 1536 1024 L 1536 768 L 1792 768 L 1792 0 L 1280 0 L 1280 768 L 768 768 L 768 0 Z" class=""></path>
    <path d="M 0 1792 L 2048 1792 " class="baseline"></path>
  </g>
  <g id="c64_us_lower_90" source="c64_us_lower_90.png">
    <path d="M 256 0 L 256 256 L 1280 256 L 1280 512 L 1024 512 L 1024 768 L 768 768 L 768 1024 L 512 1024 L 512 1280 L 256 1280 L 256 1792 L 1792 1792 L 1792 1536 L 768 1536 L 768 1280 L 1024 1280 L 1024 1024 L 1280 1024 L 1280 768 L 1536 768 L 1536 512 L 1792 512 L 1792 0 Z" class=""></path>
    <path d="M 0 1792 L 2048 1792 " class="baseline"></path>
  </g>
  <g id="c64_us_lower_91" source="c64_us_lower_91.png">
    <path d="M 768 0 L 768 768 L 0 768 L 0 1280 L 768 1280 L 768 2048 L 1280 2048 L 1280 1280 L 2048 1280 L 2048 768 L 1280 768 L 1280 0 Z" class=""></path>
    <path d="M 0 1792 L 2048 1792 " class="baseline"></path>
  </g>
  <g id="c64_us_lower_92" source="c64_us_lower_92.png">
    <path d="M 0 0 L 0 512 L 512 512 L 512 1024 L 0 1024 L 0 1536 L 512 1536 L 512 2048 L 1024 2048 L 1024 1536 L 512 1536 L 512 1024 L 1024 1024 L 1024 512 L 512 512 L 512 0 Z" class=""></path>
    <path d="M 0 1792 L 2048 1792 " class="baseline"></path>
  </g>
  <g id="c64_us_lower_93" source="c64_us_lower_93.png">
    <path d="M 768 0 L 768 2048 L 1280 2048 L 1280 0 Z" class=""></path>
    <path d="M 0 1792 L 2048 1792 " class="baseline"></path>
  </g>
  <g id="c64_us_lower_94" source="c64_us_lower_94.png">
    <path d="M 512 0 L 512 512 L 0 512 L 0 1024 L 512 1024 L 512 1536 L 0 1536 L 0 2048 L 512 2048 L 512 1536 L 1024 1536 L 1024 2048 L 1536 2048 L 1536 1536 L 2048 1536 L 2048 1024 L 1536 1024 L 1536 512 L 2048 512 L 2048 0 L 1536 0 L 1536 512 L 1024 512 L 1024 0 Z &#xA; M 512 768 L 512 512 L 1024 512 L 1024 1024 L 512 1024 Z &#xA; M 1024 1280 L 1024 1024 L 1536 1024 L 1536 1536 L 1024 1536 Z" class=""></path>
    <path d="M 0 1792 L 2048 1792 " class="baseline"></path>
  </g>
  <g id="c64_us_lower_95" source="c64_us_lower_95.png">
    <path d="M 512 0 L 512 256 L 768 256 L 768 512 L 1024 512 L 1024 768 L 1280 768 L 1280 1024 L 1536 1024 L 1536 1280 L 1792 1280 L 1792 1536 L 2048 1536 L 2048 1024 L 1792 1024 L 1792 768 L 1536 768 L 1536 512 L 1280 512 L 1280 256 L 1024 256 L 1024 0 Z &#xA; M 1536 0 L 1536 256 L 1792 256 L 1792 512 L 2048 512 L 2048 0 Z &#xA; M 0 256 L 0 768 L 256 768 L 256 1024 L 512 1024 L 512 1280 L 768 1280 L 768 1536 L 1024 1536 L 1024 1792 L 1280 1792 L 1280 2048 L 1792 2048 L 1792 1792 L 1536 1792 L 1536 1536 L 1280 1536 L 1280 1280 L 1024 1280 L 1024 1024 L 768 1024 L 768 768 L 512 768 L 512 512 L 256 512 L 256 256 Z &#xA; M 0 1280 L 0 1792 L 256 1792 L 256 2048 L 768 2048 L 768 1792 L 512 1792 L 512 1536 L 256 1536 L 256 1280 Z" class=""></path>
    <path d="M 0 1792 L 2048 1792 " class="baseline"></path>
  </g>
  <g id="c64_us_lower_96" source="c64_us_lower_96.png">
    <path d="" class=""></path>
    <path d="M 0 1792 L 2048 1792 " class="baseline"></path>
  </g>
  <g id="c64_us_lower_97" source="c64_us_lower_97.png">
    <path d="M 0 0 L 0 2048 L 1024 2048 L 1024 0 Z" class=""></path>
    <path d="M 0 1792 L 2048 1792 " class="baseline"></path>
  </g>
  <g id="c64_us_lower_98" source="c64_us_lower_98.png">
    <path d="M 0 1024 L 0 2048 L 2048 2048 L 2048 1024 Z" class=""></path>
    <path d="M 0 1792 L 2048 1792 " class="baseline"></path>
  </g>
  <g id="c64_us_lower_99" source="c64_us_lower_99.png">
    <path d="M 0 0 L 0 256 L 2048 256 L 2048 0 Z" class=""></path>
    <path d="M 0 1792 L 2048 1792 " class="baseline"></path>
  </g>
  <g id="c64_us_lower_100" source="c64_us_lower_100.png">
    <path d="M 0 1792 L 0 2048 L 2048 2048 L 2048 1792 Z" class=""></path>
    <path d="M 0 1792 L 2048 1792 " class="baseline"></path>
  </g>
  <g id="c64_us_lower_101" source="c64_us_lower_101.png">
    <path d="M 0 0 L 0 2048 L 512 2048 L 512 0 Z" class=""></path>
    <path d="M 0 1792 L 2048 1792 " class="baseline"></path>
  </g>
  <g id="c64_us_lower_102" source="c64_us_lower_102.png">
    <path d="M 0 0 L 0 512 L 512 512 L 512 1024 L 0 1024 L 0 1536 L 512 1536 L 512 2048 L 1024 2048 L 1024 1536 L 1536 1536 L 1536 2048 L 2048 2048 L 2048 1536 L 1536 1536 L 1536 1024 L 2048 1024 L 2048 512 L 1536 512 L 1536 0 L 1024 0 L 1024 512 L 512 512 L 512 0 Z &#xA; M 1024 768 L 1024 512 L 1536 512 L 1536 1024 L 1024 1024 Z &#xA; M 512 1280 L 512 1024 L 1024 1024 L 1024 1536 L 512 1536 Z" class=""></path>
    <path d="M 0 1792 L 2048 1792 " class="baseline"></path>
  </g>
  <g id="c64_us_lower_103" source="c64_us_lower_103.png">
    <path d="M 1536 0 L 1536 2048 L 2048 2048 L 2048 0 Z" class=""></path>
    <path d="M 0 1792 L 2048 1792 " class="baseline"></path>
  </g>
  <g id="c64_us_lower_104" source="c64_us_lower_104.png">
    <path d="M 0 1024 L 0 1536 L 512 1536 L 512 2048 L 1024 2048 L 1024 1536 L 1536 1536 L 1536 2048 L 2048 2048 L 2048 1536 L 1536 1536 L 1536 1024 L 1024 1024 L 1024 1536 L 512 1536 L 512 1024 Z" class=""></path>
    <path d="M 0 1792 L 2048 1792 " class="baseline"></path>
  </g>
  <g id="c64_us_lower_105" source="c64_us_lower_105.png">
    <path d="M 0 0 L 0 512 L 256 512 L 256 256 L 512 256 L 512 0 Z &#xA; M 1024 0 L 1024 256 L 768 256 L 768 512 L 512 512 L 512 768 L 256 768 L 256 1024 L 0 1024 L 0 1536 L 256 1536 L 256 1280 L 512 1280 L 512 1024 L 768 1024 L 768 768 L 1024 768 L 1024 512 L 1280 512 L 1280 256 L 1536 256 L 1536 0 Z &#xA; M 1792 256 L 1792 512 L 1536 512 L 1536 768 L 1280 768 L 1280 1024 L 1024 1024 L 1024 1280 L 768 1280 L 768 1536 L 512 1536 L 512 1792 L 256 1792 L 256 2048 L 768 2048 L 768 1792 L 1024 1792 L 1024 1536 L 1280 1536 L 1280 1280 L 1536 1280 L 1536 1024 L 1792 1024 L 1792 768 L 2048 768 L 2048 256 Z &#xA; M 1792 1280 L 1792 1536 L 1536 1536 L 1536 1792 L 1280 1792 L 1280 2048 L 1792 2048 L 1792 1792 L 2048 1792 L 2048 1280 Z" class=""></path>
    <path d="M 0 1792 L 2048 1792 " class="baseline"></path>
  </g>
  <g id="c64_us_lower_106" source="c64_us_lower_106.png">
    <path d="M 1536 0 L 1536 2048 L 2048 2048 L 2048 0 Z" class=""></path>
    <path d="M 0 1792 L 2048 1792 " class="baseline"></path>
  </g>
  <g id="c64_us_lower_107" source="c64_us_lower_107.png">
    <path d="M 768 0 L 768 2048 L 1280 2048 L 1280 1280 L 2048 1280 L 2048 768 L 1280 768 L 1280 0 Z" class=""></path>
    <path d="M 0 1792 L 2048 1792 " class="baseline"></path>
  </g>
  <g id="c64_us_lower_108" source="c64_us_lower_108.png">
    <path d="M 1024 1024 L 1024 2048 L 2048 2048 L 2048 1024 Z" class=""></path>
    <path d="M 0 1792 L 2048 1792 " class="baseline"></path>
  </g>
  <g id="c64_us_lower_109" source="c64_us_lower_109.png">
    <path d="M 768 0 L 768 1280 L 2048 1280 L 2048 768 L 1280 768 L 1280 0 Z" class=""></path>
    <path d="M 0 1792 L 2048 1792 " class="baseline"></path>
  </g>
  <g id="c64_us_lower_110" source="c64_us_lower_110.png">
    <path d="M 0 768 L 0 1280 L 768 1280 L 768 2048 L 1280 2048 L 1280 768 Z" class=""></path>
    <path d="M 0 1792 L 2048 1792 " class="baseline"></path>
  </g>
  <g id="c64_us_lower_111" source="c64_us_lower_111.png">
    <path d="M 0 1536 L 0 2048 L 2048 2048 L 2048 1536 Z" class=""></path>
    <path d="M 0 1792 L 2048 1792 " class="baseline"></path>
  </g>
  <g id="c64_us_lower_112" source="c64_us_lower_112.png">
    <path d="M 768 768 L 768 2048 L 1280 2048 L 1280 1280 L 2048 1280 L 2048 768 Z" class=""></path>
    <path d="M 0 1792 L 2048 1792 " class="baseline"></path>
  </g>
  <g id="c64_us_lower_113" source="c64_us_lower_113.png">
    <path d="M 768 0 L 768 768 L 0 768 L 0 1280 L 2048 1280 L 2048 768 L 1280 768 L 1280 0 Z" class=""></path>
    <path d="M 0 1792 L 2048 1792 " class="baseline"></path>
  </g>
  <g id="c64_us_lower_114" source="c64_us_lower_114.png">
    <path d="M 0 768 L 0 1280 L 768 1280 L 768 2048 L 1280 2048 L 1280 1280 L 2048 1280 L 2048 768 Z" class=""></path>
    <path d="M 0 1792 L 2048 1792 " class="baseline"></path>
  </g>
  <g id="c64_us_lower_115" source="c64_us_lower_115.png">
    <path d="M 768 0 L 768 768 L 0 768 L 0 1280 L 768 1280 L 768 2048 L 1280 2048 L 1280 0 Z" class=""></path>
    <path d="M 0 1792 L 2048 1792 " class="baseline"></path>
  </g>
  <g id="c64_us_lower_116" source="c64_us_lower_116.png">
    <path d="M 0 0 L 0 2048 L 512 2048 L 512 0 Z" class=""></path>
    <path d="M 0 1792 L 2048 1792 " class="baseline"></path>
  </g>
  <g id="c64_us_lower_117" source="c64_us_lower_117.png">
    <path d="M 0 0 L 0 2048 L 768 2048 L 768 0 Z" class=""></path>
    <path d="M 0 1792 L 2048 1792 " class="baseline"></path>
  </g>
  <g id="c64_us_lower_118" source="c64_us_lower_118.png">
    <path d="M 1280 0 L 1280 2048 L 2048 2048 L 2048 0 Z" class=""></path>
    <path d="M 0 1792 L 2048 1792 " class="baseline"></path>
  </g>
  <g id="c64_us_lower_119" source="c64_us_lower_119.png">
    <path d="M 0 0 L 0 512 L 2048 512 L 2048 0 Z" class=""></path>
    <path d="M 0 1792 L 2048 1792 " class="baseline"></path>
  </g>
  <g id="c64_us_lower_120" source="c64_us_lower_120.png">
    <path d="M 0 0 L 0 768 L 2048 768 L 2048 0 Z" class=""></path>
    <path d="M 0 1792 L 2048 1792 " class="baseline"></path>
  </g>
  <g id="c64_us_lower_121" source="c64_us_lower_121.png">
    <path d="M 0 1280 L 0 2048 L 2048 2048 L 2048 1280 Z" class=""></path>
    <path d="M 0 1792 L 2048 1792 " class="baseline"></path>
  </g>
  <g id="c64_us_lower_122" source="c64_us_lower_122.png">
    <path d="M 1792 0 L 1792 256 L 1536 256 L 1536 512 L 1280 512 L 1280 768 L 1024 768 L 1024 1024 L 768 1024 L 768 768 L 256 768 L 256 1792 L 768 1792 L 768 1536 L 1024 1536 L 1024 1280 L 1280 1280 L 1280 1024 L 1536 1024 L 1536 768 L 1792 768 L 1792 512 L 2048 512 L 2048 0 Z" class=""></path>
    <path d="M 0 1792 L 2048 1792 " class="baseline"></path>
  </g>
  <g id="c64_us_lower_123" source="c64_us_lower_123.png">
    <path d="M 0 1024 L 0 2048 L 1024 2048 L 1024 1024 Z" class=""></path>
    <path d="M 0 1792 L 2048 1792 " class="baseline"></path>
  </g>
  <g id="c64_us_lower_124" source="c64_us_lower_124.png">
    <path d="M 1024 0 L 1024 1024 L 2048 1024 L 2048 0 Z" class=""></path>
    <path d="M 0 1792 L 2048 1792 " class="baseline"></path>
  </g>
  <g id="c64_us_lower_125" source="c64_us_lower_125.png">
    <path d="M 768 0 L 768 768 L 0 768 L 0 1280 L 1280 1280 L 1280 0 Z" class=""></path>
    <path d="M 0 1792 L 2048 1792 " class="baseline"></path>
  </g>
  <g id="c64_us_lower_126" source="c64_us_lower_126.png">
    <path d="M 0 0 L 0 1024 L 1024 1024 L 1024 0 Z" class=""></path>
    <path d="M 0 1792 L 2048 1792 " class="baseline"></path>
  </g>
  <g id="c64_us_lower_127" source="c64_us_lower_127.png">
    <path d="M 0 0 L 0 1024 L 1024 1024 L 1024 2048 L 2048 2048 L 2048 1024 L 1024 1024 L 1024 0 Z" class=""></path>
    <path d="M 0 1792 L 2048 1792 " class="baseline"></path>
  </g>
</svg>