# Control CSV file for assembling TTF file using Font 8
cmap,char,U+0020,U+007E,glyph,0
cmap,char,U+00A3,U+00A3,glyph,64
cmap,char,U+00A9,U+00A9,glyph,95
cmap,char,U+00A0,U+00A0,glyph,0
cmap,char,U+2191,U+2191,glyph,62
name,Win/BMP,en-US,1,Balrog Cat
name,Win/BMP,en-US,2,Regular
name,Win/BMP,en-US,3,Balrog Cat Regular
name,Win/BMP,en-US,4,Balrog Cat
name,Win/BMP,en-US,5,Version 2020.0619
name,Win/BMP,en-US,6,Balrog-Cat-Regular
