# Control CSV file for assembling TTF file using Font 8
cmap,char,U+0020,U+0020,glyph,0
cmap,char,U+0030,U+0039,glyph,16
cmap,char,U+0041,U+005A,glyph,33
cmap,char,U+0061,U+007A,glyph,33
cmap,char,U+00A0,U+00A0,glyph,0
name,Win/BMP,en-US,1,Game Over
name,Win/BMP,en-US,2,Regular
name,Win/BMP,en-US,3,Game Over Regular
name,Win/BMP,en-US,4,Game Over
name,Win/BMP,en-US,5,Version 2020.0628
